%YAML 1.1
%TAG !u! tag:unity3d.com,2011:
--- !u!29 &1
OcclusionCullingSettings:
  m_ObjectHideFlags: 0
  serializedVersion: 2
  m_OcclusionBakeSettings:
    smallestOccluder: 5
    smallestHole: 0.25
    backfaceThreshold: 100
  m_SceneGUID: 00000000000000000000000000000000
  m_OcclusionCullingData: {fileID: 0}
--- !u!104 &2
RenderSettings:
  m_ObjectHideFlags: 0
  serializedVersion: 8
  m_Fog: 0
  m_FogColor: {r: 0.5, g: 0.5, b: 0.5, a: 1}
  m_FogMode: 3
  m_FogDensity: 0.01
  m_LinearFogStart: 0
  m_LinearFogEnd: 300
  m_AmbientSkyColor: {r: 0.212, g: 0.227, b: 0.259, a: 1}
  m_AmbientEquatorColor: {r: 0.114, g: 0.125, b: 0.133, a: 1}
  m_AmbientGroundColor: {r: 0.047, g: 0.043, b: 0.035, a: 1}
  m_AmbientIntensity: 1
  m_AmbientMode: 0
  m_SubtractiveShadowColor: {r: 0.42, g: 0.478, b: 0.627, a: 1}
  m_SkyboxMaterial: {fileID: 10304, guid: 0000000000000000f000000000000000, type: 0}
  m_HaloStrength: 0.5
  m_FlareStrength: 1
  m_FlareFadeSpeed: 3
  m_HaloTexture: {fileID: 0}
  m_SpotCookie: {fileID: 10001, guid: 0000000000000000e000000000000000, type: 0}
  m_DefaultReflectionMode: 0
  m_DefaultReflectionResolution: 128
  m_ReflectionBounces: 1
  m_ReflectionIntensity: 1
  m_CustomReflection: {fileID: 0}
  m_Sun: {fileID: 0}
  m_IndirectSpecularColor: {r: 0.37311947, g: 0.38074005, b: 0.35872722, a: 1}
--- !u!157 &4
LightmapSettings:
  m_ObjectHideFlags: 0
  serializedVersion: 9
  m_GIWorkflowMode: 1
  m_GISettings:
    serializedVersion: 2
    m_BounceScale: 1
    m_IndirectOutputScale: 1
    m_AlbedoBoost: 1
    m_TemporalCoherenceThreshold: 1
    m_EnvironmentLightingMode: 0
    m_EnableBakedLightmaps: 1
    m_EnableRealtimeLightmaps: 1
  m_LightmapEditorSettings:
    serializedVersion: 8
    m_Resolution: 2
    m_BakeResolution: 40
    m_TextureWidth: 1024
    m_TextureHeight: 1024
    m_AO: 0
    m_AOMaxDistance: 1
    m_CompAOExponent: 0
    m_CompAOExponentDirect: 0
    m_Padding: 2
    m_LightmapParameters: {fileID: 0}
    m_LightmapsBakeMode: 1
    m_TextureCompression: 1
    m_FinalGather: 0
    m_FinalGatherFiltering: 1
    m_FinalGatherRayCount: 1024
    m_ReflectionCompression: 2
    m_MixedBakeMode: 1
    m_BakeBackend: 0
    m_PVRSampling: 1
    m_PVRDirectSampleCount: 32
    m_PVRSampleCount: 500
    m_PVRBounces: 2
    m_PVRFiltering: 0
    m_PVRFilteringMode: 1
    m_PVRCulling: 1
    m_PVRFilteringGaussRadiusDirect: 1
    m_PVRFilteringGaussRadiusIndirect: 5
    m_PVRFilteringGaussRadiusAO: 2
    m_PVRFilteringAtrousColorSigma: 1
    m_PVRFilteringAtrousNormalSigma: 1
    m_PVRFilteringAtrousPositionSigma: 1
  m_LightingDataAsset: {fileID: 112000001, guid: a5dbe8c6485de8043b897d5657f80565,
    type: 2}
  m_ShadowMaskMode: 2
--- !u!196 &5
NavMeshSettings:
  serializedVersion: 2
  m_ObjectHideFlags: 0
  m_BuildSettings:
    serializedVersion: 2
    agentTypeID: 0
    agentRadius: 0.5
    agentHeight: 2
    agentSlope: 45
    agentClimb: 0.4
    ledgeDropHeight: 0
    maxJumpAcrossDistance: 0
    minRegionArea: 2
    manualCellSize: 0
    cellSize: 0.16666667
    manualTileSize: 0
    tileSize: 256
    accuratePlacement: 0
  m_NavMeshData: {fileID: 0}
--- !u!1 &40052057
GameObject:
  m_ObjectHideFlags: 0
  m_PrefabParentObject: {fileID: 0}
  m_PrefabInternal: {fileID: 0}
  serializedVersion: 5
  m_Component:
  - component: {fileID: 40052059}
  - component: {fileID: 40052058}
  m_Layer: 0
  m_Name: Directional Light
  m_TagString: Untagged
  m_Icon: {fileID: 0}
  m_NavMeshLayer: 0
  m_StaticEditorFlags: 0
  m_IsActive: 1
--- !u!108 &40052058
Light:
  m_ObjectHideFlags: 0
  m_PrefabParentObject: {fileID: 0}
  m_PrefabInternal: {fileID: 0}
  m_GameObject: {fileID: 40052057}
  m_Enabled: 1
  serializedVersion: 8
  m_Type: 1
  m_Color: {r: 1, g: 0.95686275, b: 0.8392157, a: 1}
  m_Intensity: 0.5
  m_Range: 10
  m_SpotAngle: 30
  m_CookieSize: 10
  m_Shadows:
    m_Type: 2
    m_Resolution: -1
    m_CustomResolution: -1
    m_Strength: 1
    m_Bias: 0.05
    m_NormalBias: 0.4
    m_NearPlane: 0.2
  m_Cookie: {fileID: 0}
  m_DrawHalo: 0
  m_Flare: {fileID: 0}
  m_RenderMode: 0
  m_CullingMask:
    serializedVersion: 2
    m_Bits: 4294967295
  m_Lightmapping: 4
  m_AreaSize: {x: 1, y: 1}
  m_BounceIntensity: 1
  m_ColorTemperature: 6570
  m_UseColorTemperature: 0
  m_ShadowRadius: 0
  m_ShadowAngle: 0
--- !u!4 &40052059
Transform:
  m_ObjectHideFlags: 0
  m_PrefabParentObject: {fileID: 0}
  m_PrefabInternal: {fileID: 0}
  m_GameObject: {fileID: 40052057}
  m_LocalRotation: {x: 0, y: 0, z: 0, w: 1}
  m_LocalPosition: {x: 0, y: 3, z: 0}
  m_LocalScale: {x: 1, y: 1, z: 1}
  m_Children: []
  m_Father: {fileID: 0}
  m_RootOrder: 1
  m_LocalEulerAnglesHint: {x: 0, y: 0, z: 0}
--- !u!1 &160174367
GameObject:
  m_ObjectHideFlags: 0
  m_PrefabParentObject: {fileID: 0}
  m_PrefabInternal: {fileID: 0}
  serializedVersion: 5
  m_Component:
  - component: {fileID: 160174372}
  - component: {fileID: 160174371}
  - component: {fileID: 160174370}
  - component: {fileID: 160174369}
  - component: {fileID: 160174368}
  m_Layer: 0
  m_Name: Main Camera
  m_TagString: MainCamera
  m_Icon: {fileID: 0}
  m_NavMeshLayer: 0
  m_StaticEditorFlags: 0
  m_IsActive: 1
--- !u!81 &160174368
AudioListener:
  m_ObjectHideFlags: 0
  m_PrefabParentObject: {fileID: 0}
  m_PrefabInternal: {fileID: 0}
  m_GameObject: {fileID: 160174367}
  m_Enabled: 1
--- !u!124 &160174369
Behaviour:
  m_ObjectHideFlags: 0
  m_PrefabParentObject: {fileID: 0}
  m_PrefabInternal: {fileID: 0}
  m_GameObject: {fileID: 160174367}
  m_Enabled: 1
--- !u!92 &160174370
Behaviour:
  m_ObjectHideFlags: 0
  m_PrefabParentObject: {fileID: 0}
  m_PrefabInternal: {fileID: 0}
  m_GameObject: {fileID: 160174367}
  m_Enabled: 1
--- !u!20 &160174371
Camera:
  m_ObjectHideFlags: 0
  m_PrefabParentObject: {fileID: 0}
  m_PrefabInternal: {fileID: 0}
  m_GameObject: {fileID: 160174367}
  m_Enabled: 1
  serializedVersion: 2
  m_ClearFlags: 2
  m_BackGroundColor: {r: 1, g: 1, b: 1, a: 0.019607844}
  m_NormalizedViewPortRect:
    serializedVersion: 2
    x: 0
    y: 0
    width: 1
    height: 1
  near clip plane: 0.3
  far clip plane: 1000
  field of view: 60
  orthographic: 0
  orthographic size: 5
  m_Depth: -1
  m_CullingMask:
    serializedVersion: 2
    m_Bits: 4294967295
  m_RenderingPath: -1
  m_TargetTexture: {fileID: 0}
  m_TargetDisplay: 0
  m_TargetEye: 3
  m_HDR: 0
  m_AllowMSAA: 1
  m_ForceIntoRT: 0
  m_OcclusionCulling: 1
  m_StereoConvergence: 10
  m_StereoSeparation: 0.022
  m_StereoMirrorMode: 0
--- !u!4 &160174372
Transform:
  m_ObjectHideFlags: 0
  m_PrefabParentObject: {fileID: 0}
  m_PrefabInternal: {fileID: 0}
  m_GameObject: {fileID: 160174367}
  m_LocalRotation: {x: 0, y: 0, z: 0, w: 1}
  m_LocalPosition: {x: 0, y: -0.05, z: -1.83}
  m_LocalScale: {x: 1, y: 1, z: 1}
  m_Children: []
  m_Father: {fileID: 0}
  m_RootOrder: 0
  m_LocalEulerAnglesHint: {x: 0, y: 0, z: 0}
--- !u!1001 &244511080
Prefab:
  m_ObjectHideFlags: 0
  serializedVersion: 2
  m_Modification:
    m_TransformParent: {fileID: 1114464983}
    m_Modifications:
    - target: {fileID: 22444306, guid: 21c82a74592cf41c7a213678e023ad9d, type: 2}
      propertyPath: m_LocalPosition.x
      value: 0
      objectReference: {fileID: 0}
    - target: {fileID: 22444306, guid: 21c82a74592cf41c7a213678e023ad9d, type: 2}
      propertyPath: m_LocalPosition.y
      value: 0
      objectReference: {fileID: 0}
    - target: {fileID: 22444306, guid: 21c82a74592cf41c7a213678e023ad9d, type: 2}
      propertyPath: m_LocalPosition.z
      value: 0
      objectReference: {fileID: 0}
    - target: {fileID: 22444306, guid: 21c82a74592cf41c7a213678e023ad9d, type: 2}
      propertyPath: m_LocalRotation.x
      value: 0
      objectReference: {fileID: 0}
    - target: {fileID: 22444306, guid: 21c82a74592cf41c7a213678e023ad9d, type: 2}
      propertyPath: m_LocalRotation.y
      value: 0
      objectReference: {fileID: 0}
    - target: {fileID: 22444306, guid: 21c82a74592cf41c7a213678e023ad9d, type: 2}
      propertyPath: m_LocalRotation.z
      value: 0
      objectReference: {fileID: 0}
    - target: {fileID: 22444306, guid: 21c82a74592cf41c7a213678e023ad9d, type: 2}
      propertyPath: m_LocalRotation.w
      value: 1
      objectReference: {fileID: 0}
    - target: {fileID: 22444306, guid: 21c82a74592cf41c7a213678e023ad9d, type: 2}
      propertyPath: m_RootOrder
      value: 2
      objectReference: {fileID: 0}
    - target: {fileID: 22444306, guid: 21c82a74592cf41c7a213678e023ad9d, type: 2}
      propertyPath: m_AnchoredPosition.x
      value: 0
      objectReference: {fileID: 0}
    - target: {fileID: 22444306, guid: 21c82a74592cf41c7a213678e023ad9d, type: 2}
      propertyPath: m_AnchoredPosition.y
      value: 15
      objectReference: {fileID: 0}
    - target: {fileID: 22444306, guid: 21c82a74592cf41c7a213678e023ad9d, type: 2}
      propertyPath: m_SizeDelta.x
      value: 320
      objectReference: {fileID: 0}
    - target: {fileID: 22444306, guid: 21c82a74592cf41c7a213678e023ad9d, type: 2}
      propertyPath: m_SizeDelta.y
      value: 30
      objectReference: {fileID: 0}
    - target: {fileID: 22444306, guid: 21c82a74592cf41c7a213678e023ad9d, type: 2}
      propertyPath: m_AnchorMin.x
      value: .5
      objectReference: {fileID: 0}
    - target: {fileID: 22444306, guid: 21c82a74592cf41c7a213678e023ad9d, type: 2}
      propertyPath: m_AnchorMin.y
      value: 0
      objectReference: {fileID: 0}
    - target: {fileID: 22444306, guid: 21c82a74592cf41c7a213678e023ad9d, type: 2}
      propertyPath: m_AnchorMax.x
      value: .5
      objectReference: {fileID: 0}
    - target: {fileID: 22444306, guid: 21c82a74592cf41c7a213678e023ad9d, type: 2}
      propertyPath: m_AnchorMax.y
      value: 0
      objectReference: {fileID: 0}
    - target: {fileID: 22444306, guid: 21c82a74592cf41c7a213678e023ad9d, type: 2}
      propertyPath: m_Pivot.x
      value: .5
      objectReference: {fileID: 0}
    - target: {fileID: 22444306, guid: 21c82a74592cf41c7a213678e023ad9d, type: 2}
      propertyPath: m_Pivot.y
      value: .5
      objectReference: {fileID: 0}
    - target: {fileID: 11478384, guid: 21c82a74592cf41c7a213678e023ad9d, type: 2}
      propertyPath: m_RaycastTarget
      value: 0
      objectReference: {fileID: 0}
    m_RemovedComponents: []
  m_ParentPrefab: {fileID: 100100000, guid: 21c82a74592cf41c7a213678e023ad9d, type: 2}
  m_RootGameObject: {fileID: 466898420}
  m_IsPrefabParent: 0
--- !u!224 &244511081
RectTransform:
  m_ObjectHideFlags: 0
  m_PrefabParentObject: {fileID: 22462606, guid: 21c82a74592cf41c7a213678e023ad9d,
    type: 2}
  m_PrefabInternal: {fileID: 244511080}
  m_GameObject: {fileID: 466898420}
  m_LocalRotation: {x: 0, y: 0, z: 0, w: 1}
  m_LocalPosition: {x: 0, y: 0, z: 0}
  m_LocalScale: {x: 0.8, y: 0.8, z: 1}
  m_Children: []
  m_Father: {fileID: 1114464983}
  m_RootOrder: 2
  m_LocalEulerAnglesHint: {x: 0, y: 0, z: 0}
  m_AnchorMin: {x: 0.5, y: 0}
  m_AnchorMax: {x: 0.5, y: 0}
  m_AnchoredPosition: {x: 0, y: 15}
  m_SizeDelta: {x: 320, y: 30}
  m_Pivot: {x: 0.5, y: 0.5}
--- !u!1 &246099072
GameObject:
  m_ObjectHideFlags: 0
  m_PrefabParentObject: {fileID: 176812, guid: 455a8082e44b74539a2ffe87d0226970, type: 2}
  m_PrefabInternal: {fileID: 937143431}
  serializedVersion: 5
  m_Component:
  - component: {fileID: 1796305224}
  - component: {fileID: 246099075}
  - component: {fileID: 246099074}
  - component: {fileID: 246099073}
  - component: {fileID: 1796305225}
  m_Layer: 0
  m_Name: Menu Item With Sprite (2)
  m_TagString: MenuItem
  m_Icon: {fileID: 0}
  m_NavMeshLayer: 0
  m_StaticEditorFlags: 0
  m_IsActive: 1
--- !u!23 &246099073
MeshRenderer:
  m_ObjectHideFlags: 0
  m_PrefabParentObject: {fileID: 2329132, guid: 455a8082e44b74539a2ffe87d0226970,
    type: 2}
  m_PrefabInternal: {fileID: 937143431}
  m_GameObject: {fileID: 246099072}
  m_Enabled: 0
  m_CastShadows: 1
  m_ReceiveShadows: 1
  m_MotionVectors: 1
  m_LightProbeUsage: 1
  m_ReflectionProbeUsage: 1
  m_Materials:
  - {fileID: 2100000, guid: 310255932d18e4c339a532537a012e6f, type: 2}
  m_StaticBatchInfo:
    firstSubMesh: 0
    subMeshCount: 0
  m_StaticBatchRoot: {fileID: 0}
  m_ProbeAnchor: {fileID: 0}
  m_LightProbeVolumeOverride: {fileID: 0}
  m_ScaleInLightmap: 1
  m_PreserveUVs: 0
  m_IgnoreNormalsForChartDetection: 0
  m_ImportantGI: 0
  m_SelectedEditorRenderState: 3
  m_MinimumChartSize: 4
  m_AutoUVMaxDistance: 0.5
  m_AutoUVMaxAngle: 89
  m_LightmapParameters: {fileID: 0}
  m_SortingLayerID: 0
  m_SortingLayer: 0
  m_SortingOrder: 0
--- !u!65 &246099074
BoxCollider:
  m_ObjectHideFlags: 0
  m_PrefabParentObject: {fileID: 6582184, guid: 455a8082e44b74539a2ffe87d0226970,
    type: 2}
  m_PrefabInternal: {fileID: 937143431}
  m_GameObject: {fileID: 246099072}
  m_Material: {fileID: 0}
  m_IsTrigger: 0
  m_Enabled: 1
  serializedVersion: 2
  m_Size: {x: 1, y: 1, z: 1}
  m_Center: {x: 0, y: 0, z: 0}
--- !u!33 &246099075
MeshFilter:
  m_ObjectHideFlags: 0
  m_PrefabParentObject: {fileID: 3300204, guid: 455a8082e44b74539a2ffe87d0226970,
    type: 2}
  m_PrefabInternal: {fileID: 937143431}
  m_GameObject: {fileID: 246099072}
  m_Mesh: {fileID: 10202, guid: 0000000000000000e000000000000000, type: 0}
--- !u!4 &268861645
Transform:
  m_ObjectHideFlags: 0
  m_PrefabParentObject: {fileID: 495170, guid: 455a8082e44b74539a2ffe87d0226970, type: 2}
  m_PrefabInternal: {fileID: 1275362057}
  m_GameObject: {fileID: 345837631}
  m_LocalRotation: {x: 0, y: 0, z: 0, w: 1}
  m_LocalPosition: {x: 0, y: 0, z: 0}
  m_LocalScale: {x: 1, y: 1.3, z: 0.001}
  m_Children:
  - {fileID: 1207617611}
  m_Father: {fileID: 577085388}
  m_RootOrder: 5
  m_LocalEulerAnglesHint: {x: 0, y: 0, z: 0}
--- !u!114 &268861646
MonoBehaviour:
  m_ObjectHideFlags: 0
  m_PrefabParentObject: {fileID: 11491122, guid: 455a8082e44b74539a2ffe87d0226970,
    type: 2}
  m_PrefabInternal: {fileID: 1275362057}
  m_GameObject: {fileID: 345837631}
  m_Enabled: 1
  m_EditorHideFlags: 0
  m_Script: {fileID: 11500000, guid: 3160ba9731a344d29af7fcc2db11ebb5, type: 3}
  m_Name: 
  m_EditorClassIdentifier: 
--- !u!1 &345837631
GameObject:
  m_ObjectHideFlags: 0
  m_PrefabParentObject: {fileID: 176812, guid: 455a8082e44b74539a2ffe87d0226970, type: 2}
  m_PrefabInternal: {fileID: 1275362057}
  serializedVersion: 5
  m_Component:
  - component: {fileID: 268861645}
  - component: {fileID: 345837634}
  - component: {fileID: 345837633}
  - component: {fileID: 345837632}
  - component: {fileID: 268861646}
  m_Layer: 0
  m_Name: Menu Item With Sprite (6)
  m_TagString: MenuItem
  m_Icon: {fileID: 0}
  m_NavMeshLayer: 0
  m_StaticEditorFlags: 0
  m_IsActive: 1
--- !u!23 &345837632
MeshRenderer:
  m_ObjectHideFlags: 0
  m_PrefabParentObject: {fileID: 2329132, guid: 455a8082e44b74539a2ffe87d0226970,
    type: 2}
  m_PrefabInternal: {fileID: 1275362057}
  m_GameObject: {fileID: 345837631}
  m_Enabled: 0
  m_CastShadows: 1
  m_ReceiveShadows: 1
  m_MotionVectors: 1
  m_LightProbeUsage: 1
  m_ReflectionProbeUsage: 1
  m_Materials:
  - {fileID: 2100000, guid: 310255932d18e4c339a532537a012e6f, type: 2}
  m_StaticBatchInfo:
    firstSubMesh: 0
    subMeshCount: 0
  m_StaticBatchRoot: {fileID: 0}
  m_ProbeAnchor: {fileID: 0}
  m_LightProbeVolumeOverride: {fileID: 0}
  m_ScaleInLightmap: 1
  m_PreserveUVs: 0
  m_IgnoreNormalsForChartDetection: 0
  m_ImportantGI: 0
  m_SelectedEditorRenderState: 3
  m_MinimumChartSize: 4
  m_AutoUVMaxDistance: 0.5
  m_AutoUVMaxAngle: 89
  m_LightmapParameters: {fileID: 0}
  m_SortingLayerID: 0
  m_SortingLayer: 0
  m_SortingOrder: 0
--- !u!65 &345837633
BoxCollider:
  m_ObjectHideFlags: 0
  m_PrefabParentObject: {fileID: 6582184, guid: 455a8082e44b74539a2ffe87d0226970,
    type: 2}
  m_PrefabInternal: {fileID: 1275362057}
  m_GameObject: {fileID: 345837631}
  m_Material: {fileID: 0}
  m_IsTrigger: 0
  m_Enabled: 1
  serializedVersion: 2
  m_Size: {x: 1, y: 1, z: 1}
  m_Center: {x: 0, y: 0, z: 0}
--- !u!33 &345837634
MeshFilter:
  m_ObjectHideFlags: 0
  m_PrefabParentObject: {fileID: 3300204, guid: 455a8082e44b74539a2ffe87d0226970,
    type: 2}
  m_PrefabInternal: {fileID: 1275362057}
  m_GameObject: {fileID: 345837631}
  m_Mesh: {fileID: 10202, guid: 0000000000000000e000000000000000, type: 0}
--- !u!4 &432486713
Transform:
  m_ObjectHideFlags: 0
  m_PrefabParentObject: {fileID: 495170, guid: 455a8082e44b74539a2ffe87d0226970, type: 2}
  m_PrefabInternal: {fileID: 2065659562}
  m_GameObject: {fileID: 631220931}
  m_LocalRotation: {x: 0, y: 0, z: 0, w: 1}
  m_LocalPosition: {x: 0, y: 0, z: 0}
  m_LocalScale: {x: 1, y: 1.3, z: 0.001}
  m_Children:
  - {fileID: 1925961231}
  m_Father: {fileID: 577085388}
  m_RootOrder: 3
  m_LocalEulerAnglesHint: {x: 0, y: 0, z: 0}
--- !u!114 &432486714
MonoBehaviour:
  m_ObjectHideFlags: 0
  m_PrefabParentObject: {fileID: 11491122, guid: 455a8082e44b74539a2ffe87d0226970,
    type: 2}
  m_PrefabInternal: {fileID: 2065659562}
  m_GameObject: {fileID: 631220931}
  m_Enabled: 1
  m_EditorHideFlags: 0
  m_Script: {fileID: 11500000, guid: 3160ba9731a344d29af7fcc2db11ebb5, type: 3}
  m_Name: 
  m_EditorClassIdentifier: 
--- !u!1 &466898420
GameObject:
  m_ObjectHideFlags: 0
  m_PrefabParentObject: {fileID: 136888, guid: 21c82a74592cf41c7a213678e023ad9d, type: 2}
  m_PrefabInternal: {fileID: 244511080}
  serializedVersion: 5
  m_Component:
  - component: {fileID: 244511081}
  - component: {fileID: 466898422}
  - component: {fileID: 466898421}
  m_Layer: 5
  m_Name: Instructions
  m_TagString: Untagged
  m_Icon: {fileID: 0}
  m_NavMeshLayer: 0
  m_StaticEditorFlags: 0
  m_IsActive: 1
--- !u!114 &466898421
MonoBehaviour:
  m_ObjectHideFlags: 0
  m_PrefabParentObject: {fileID: 11478384, guid: 21c82a74592cf41c7a213678e023ad9d,
    type: 2}
  m_PrefabInternal: {fileID: 244511080}
  m_GameObject: {fileID: 466898420}
  m_Enabled: 1
  m_EditorHideFlags: 0
  m_Script: {fileID: 708705254, guid: f5f67c52d1564df4a8936ccd202a3bd8, type: 3}
  m_Name: 
  m_EditorClassIdentifier: 
  m_Material: {fileID: 0}
  m_Color: {r: 0, g: 0, b: 0, a: 1}
  m_RaycastTarget: 0
  m_OnCullStateChanged:
    m_PersistentCalls:
      m_Calls: []
    m_TypeName: UnityEngine.UI.MaskableGraphic+CullStateChangedEvent, UnityEngine.UI,
      Version=1.0.0.0, Culture=neutral, PublicKeyToken=null
  m_FontData:
    m_Font: {fileID: 10102, guid: 0000000000000000e000000000000000, type: 0}
    m_FontSize: 18
    m_FontStyle: 0
    m_BestFit: 0
    m_MinSize: 10
    m_MaxSize: 40
    m_Alignment: 4
    m_AlignByGeometry: 0
    m_RichText: 1
    m_HorizontalOverflow: 0
    m_VerticalOverflow: 0
    m_LineSpacing: 1
  m_Text: '[Press Enter For Next Example]'
--- !u!222 &466898422
CanvasRenderer:
  m_ObjectHideFlags: 0
  m_PrefabParentObject: {fileID: 22220110, guid: 21c82a74592cf41c7a213678e023ad9d,
    type: 2}
  m_PrefabInternal: {fileID: 244511080}
  m_GameObject: {fileID: 466898420}
--- !u!1 &528616839
GameObject:
  m_ObjectHideFlags: 0
  m_PrefabParentObject: {fileID: 143642, guid: 455a8082e44b74539a2ffe87d0226970, type: 2}
  m_PrefabInternal: {fileID: 937143431}
  serializedVersion: 5
  m_Component:
  - component: {fileID: 528616840}
  - component: {fileID: 528616841}
  m_Layer: 0
  m_Name: Sprite
  m_TagString: Untagged
  m_Icon: {fileID: 0}
  m_NavMeshLayer: 0
  m_StaticEditorFlags: 0
  m_IsActive: 1
--- !u!4 &528616840
Transform:
  m_ObjectHideFlags: 0
  m_PrefabParentObject: {fileID: 462336, guid: 455a8082e44b74539a2ffe87d0226970, type: 2}
  m_PrefabInternal: {fileID: 937143431}
  m_GameObject: {fileID: 528616839}
  m_LocalRotation: {x: 0, y: 0, z: 0, w: 1}
  m_LocalPosition: {x: 0, y: 0, z: -1}
  m_LocalScale: {x: 0.6, y: 0.6, z: 5}
  m_Children: []
  m_Father: {fileID: 1796305224}
  m_RootOrder: 0
  m_LocalEulerAnglesHint: {x: 0, y: 0, z: 0}
--- !u!212 &528616841
SpriteRenderer:
  m_ObjectHideFlags: 0
  m_PrefabParentObject: {fileID: 21213984, guid: 455a8082e44b74539a2ffe87d0226970,
    type: 2}
  m_PrefabInternal: {fileID: 937143431}
  m_GameObject: {fileID: 528616839}
  m_Enabled: 1
  m_CastShadows: 0
  m_ReceiveShadows: 0
  m_MotionVectors: 1
  m_LightProbeUsage: 0
  m_ReflectionProbeUsage: 0
  m_Materials:
  - {fileID: 10754, guid: 0000000000000000f000000000000000, type: 0}
  m_StaticBatchInfo:
    firstSubMesh: 0
    subMeshCount: 0
  m_StaticBatchRoot: {fileID: 0}
  m_ProbeAnchor: {fileID: 0}
  m_LightProbeVolumeOverride: {fileID: 0}
  m_ScaleInLightmap: 1
  m_PreserveUVs: 0
  m_IgnoreNormalsForChartDetection: 0
  m_ImportantGI: 0
  m_SelectedEditorRenderState: 0
  m_MinimumChartSize: 4
  m_AutoUVMaxDistance: 0.5
  m_AutoUVMaxAngle: 89
  m_LightmapParameters: {fileID: 0}
  m_SortingLayerID: 0
  m_SortingLayer: 0
  m_SortingOrder: 10
  m_Sprite: {fileID: 21300008, guid: 426a52a1a2a2f4be187d6d7b3607e056, type: 3}
  m_Color: {r: 1, g: 1, b: 1, a: 1}
  m_FlipX: 0
  m_FlipY: 0
  m_DrawMode: 0
  m_Size: {x: 1, y: 1}
  m_AdaptiveModeThreshold: 0.5
  m_SpriteTileMode: 0
--- !u!1 &577085386
GameObject:
  m_ObjectHideFlags: 0
  m_PrefabParentObject: {fileID: 0}
  m_PrefabInternal: {fileID: 0}
  serializedVersion: 5
  m_Component:
  - component: {fileID: 577085388}
  - component: {fileID: 577085387}
  - component: {fileID: 577085390}
  - component: {fileID: 577085389}
  m_Layer: 0
  m_Name: Menu
  m_TagString: Untagged
  m_Icon: {fileID: 0}
  m_NavMeshLayer: 0
  m_StaticEditorFlags: 0
  m_IsActive: 1
--- !u!114 &577085387
MonoBehaviour:
  m_ObjectHideFlags: 0
  m_PrefabParentObject: {fileID: 0}
  m_PrefabInternal: {fileID: 0}
  m_GameObject: {fileID: 577085386}
  m_Enabled: 1
  m_EditorHideFlags: 0
  m_Script: {fileID: 11500000, guid: 9199e5573ffd14da69df1212c90868e9, type: 3}
  m_Name: 
  m_EditorClassIdentifier: 
  startingMenuItem: 3
  menuItemAngle: 0
  distanceBetweenMenus: 1
  zOffsetForCentredItem: 0.5
  menuItems:
  - {fileID: 658030695}
  - {fileID: 1933090483}
  - {fileID: 1796305225}
  - {fileID: 432486714}
  - {fileID: 268861646}
  - {fileID: 2117004889}
--- !u!4 &577085388
Transform:
  m_ObjectHideFlags: 0
  m_PrefabParentObject: {fileID: 0}
  m_PrefabInternal: {fileID: 0}
  m_GameObject: {fileID: 577085386}
  m_LocalRotation: {x: 0, y: 0, z: 0, w: 1}
  m_LocalPosition: {x: 0, y: 0, z: 0}
  m_LocalScale: {x: 1, y: 1, z: 1}
  m_Children:
  - {fileID: 1375643291}
  - {fileID: 1933090487}
  - {fileID: 1796305224}
  - {fileID: 432486713}
  - {fileID: 2117004888}
  - {fileID: 268861645}
  m_Father: {fileID: 0}
  m_RootOrder: 2
  m_LocalEulerAnglesHint: {x: 0, y: 0, z: 0}
--- !u!114 &577085389
MonoBehaviour:
  m_ObjectHideFlags: 0
  m_PrefabParentObject: {fileID: 0}
  m_PrefabInternal: {fileID: 0}
  m_GameObject: {fileID: 577085386}
  m_Enabled: 1
  m_EditorHideFlags: 0
  m_Script: {fileID: 11500000, guid: dc1c0e274f2fc4ed093ed8e84d2fe67c, type: 3}
  m_Name: 
  m_EditorClassIdentifier: 
  handleTouches: 1
  requireMenuItemToBeCentredForSelectiion: 1
--- !u!114 &577085390
MonoBehaviour:
  m_ObjectHideFlags: 0
  m_PrefabParentObject: {fileID: 0}
  m_PrefabInternal: {fileID: 0}
  m_GameObject: {fileID: 577085386}
  m_Enabled: 1
  m_EditorHideFlags: 0
  m_Script: {fileID: 11500000, guid: c760e94a8711a476bbd5b9403f193f90, type: 3}
  m_Name: 
  m_EditorClassIdentifier: 
  handleSwipes: 1
  handleFlicks: 0
  requiredForceForFlick: 7
  flickType: 0
  lockToClosest: 1
  maxForce: 15
--- !u!1 &631220931
GameObject:
  m_ObjectHideFlags: 0
  m_PrefabParentObject: {fileID: 176812, guid: 455a8082e44b74539a2ffe87d0226970, type: 2}
  m_PrefabInternal: {fileID: 2065659562}
  serializedVersion: 5
  m_Component:
  - component: {fileID: 432486713}
  - component: {fileID: 631220934}
  - component: {fileID: 631220933}
  - component: {fileID: 631220932}
  - component: {fileID: 432486714}
  m_Layer: 0
  m_Name: Menu Item With Sprite (3)
  m_TagString: MenuItem
  m_Icon: {fileID: 0}
  m_NavMeshLayer: 0
  m_StaticEditorFlags: 0
  m_IsActive: 1
--- !u!23 &631220932
MeshRenderer:
  m_ObjectHideFlags: 0
  m_PrefabParentObject: {fileID: 2329132, guid: 455a8082e44b74539a2ffe87d0226970,
    type: 2}
  m_PrefabInternal: {fileID: 2065659562}
  m_GameObject: {fileID: 631220931}
  m_Enabled: 0
  m_CastShadows: 1
  m_ReceiveShadows: 1
  m_MotionVectors: 1
  m_LightProbeUsage: 1
  m_ReflectionProbeUsage: 1
  m_Materials:
  - {fileID: 2100000, guid: 310255932d18e4c339a532537a012e6f, type: 2}
  m_StaticBatchInfo:
    firstSubMesh: 0
    subMeshCount: 0
  m_StaticBatchRoot: {fileID: 0}
  m_ProbeAnchor: {fileID: 0}
  m_LightProbeVolumeOverride: {fileID: 0}
  m_ScaleInLightmap: 1
  m_PreserveUVs: 0
  m_IgnoreNormalsForChartDetection: 0
  m_ImportantGI: 0
  m_SelectedEditorRenderState: 3
  m_MinimumChartSize: 4
  m_AutoUVMaxDistance: 0.5
  m_AutoUVMaxAngle: 89
  m_LightmapParameters: {fileID: 0}
  m_SortingLayerID: 0
  m_SortingLayer: 0
  m_SortingOrder: 0
--- !u!65 &631220933
BoxCollider:
  m_ObjectHideFlags: 0
  m_PrefabParentObject: {fileID: 6582184, guid: 455a8082e44b74539a2ffe87d0226970,
    type: 2}
  m_PrefabInternal: {fileID: 2065659562}
  m_GameObject: {fileID: 631220931}
  m_Material: {fileID: 0}
  m_IsTrigger: 0
  m_Enabled: 1
  serializedVersion: 2
  m_Size: {x: 1, y: 1, z: 1}
  m_Center: {x: 0, y: 0, z: 0}
--- !u!33 &631220934
MeshFilter:
  m_ObjectHideFlags: 0
  m_PrefabParentObject: {fileID: 3300204, guid: 455a8082e44b74539a2ffe87d0226970,
    type: 2}
  m_PrefabInternal: {fileID: 2065659562}
  m_GameObject: {fileID: 631220931}
  m_Mesh: {fileID: 10202, guid: 0000000000000000e000000000000000, type: 0}
--- !u!114 &658030695
MonoBehaviour:
  m_ObjectHideFlags: 0
  m_PrefabParentObject: {fileID: 11491122, guid: 455a8082e44b74539a2ffe87d0226970,
    type: 2}
  m_PrefabInternal: {fileID: 1000856876}
  m_GameObject: {fileID: 1021075080}
  m_Enabled: 1
  m_EditorHideFlags: 0
  m_Script: {fileID: 11500000, guid: 3160ba9731a344d29af7fcc2db11ebb5, type: 3}
  m_Name: 
  m_EditorClassIdentifier: 
--- !u!1 &765412245
GameObject:
  m_ObjectHideFlags: 0
  m_PrefabParentObject: {fileID: 143642, guid: 455a8082e44b74539a2ffe87d0226970, type: 2}
  m_PrefabInternal: {fileID: 936269105}
  serializedVersion: 5
  m_Component:
  - component: {fileID: 765412246}
  - component: {fileID: 765412247}
  m_Layer: 0
  m_Name: Sprite
  m_TagString: Untagged
  m_Icon: {fileID: 0}
  m_NavMeshLayer: 0
  m_StaticEditorFlags: 0
  m_IsActive: 1
--- !u!4 &765412246
Transform:
  m_ObjectHideFlags: 0
  m_PrefabParentObject: {fileID: 462336, guid: 455a8082e44b74539a2ffe87d0226970, type: 2}
  m_PrefabInternal: {fileID: 936269105}
  m_GameObject: {fileID: 765412245}
  m_LocalRotation: {x: 0, y: 0, z: 0, w: 1}
  m_LocalPosition: {x: 0, y: 0, z: -1}
  m_LocalScale: {x: 0.6, y: 0.6, z: 5}
  m_Children: []
  m_Father: {fileID: 2117004888}
  m_RootOrder: 0
  m_LocalEulerAnglesHint: {x: 0, y: 0, z: 0}
--- !u!212 &765412247
SpriteRenderer:
  m_ObjectHideFlags: 0
  m_PrefabParentObject: {fileID: 21213984, guid: 455a8082e44b74539a2ffe87d0226970,
    type: 2}
  m_PrefabInternal: {fileID: 936269105}
  m_GameObject: {fileID: 765412245}
  m_Enabled: 1
  m_CastShadows: 0
  m_ReceiveShadows: 0
  m_MotionVectors: 1
  m_LightProbeUsage: 0
  m_ReflectionProbeUsage: 0
  m_Materials:
  - {fileID: 10754, guid: 0000000000000000f000000000000000, type: 0}
  m_StaticBatchInfo:
    firstSubMesh: 0
    subMeshCount: 0
  m_StaticBatchRoot: {fileID: 0}
  m_ProbeAnchor: {fileID: 0}
  m_LightProbeVolumeOverride: {fileID: 0}
  m_ScaleInLightmap: 1
  m_PreserveUVs: 0
  m_IgnoreNormalsForChartDetection: 0
  m_ImportantGI: 0
  m_SelectedEditorRenderState: 0
  m_MinimumChartSize: 4
  m_AutoUVMaxDistance: 0.5
  m_AutoUVMaxAngle: 89
  m_LightmapParameters: {fileID: 0}
  m_SortingLayerID: 0
  m_SortingLayer: 0
  m_SortingOrder: 10
  m_Sprite: {fileID: 21300032, guid: 426a52a1a2a2f4be187d6d7b3607e056, type: 3}
  m_Color: {r: 1, g: 1, b: 1, a: 1}
  m_FlipX: 0
  m_FlipY: 0
  m_DrawMode: 0
  m_Size: {x: 1, y: 1}
  m_AdaptiveModeThreshold: 0.5
  m_SpriteTileMode: 0
--- !u!1 &868061857
GameObject:
  m_ObjectHideFlags: 0
  m_PrefabParentObject: {fileID: 143642, guid: 455a8082e44b74539a2ffe87d0226970, type: 2}
  m_PrefabInternal: {fileID: 1000856876}
  serializedVersion: 5
  m_Component:
  - component: {fileID: 868061858}
  - component: {fileID: 868061859}
  m_Layer: 0
  m_Name: Sprite
  m_TagString: Untagged
  m_Icon: {fileID: 0}
  m_NavMeshLayer: 0
  m_StaticEditorFlags: 0
  m_IsActive: 1
--- !u!4 &868061858
Transform:
  m_ObjectHideFlags: 0
  m_PrefabParentObject: {fileID: 462336, guid: 455a8082e44b74539a2ffe87d0226970, type: 2}
  m_PrefabInternal: {fileID: 1000856876}
  m_GameObject: {fileID: 868061857}
  m_LocalRotation: {x: 0, y: 0, z: 0, w: 1}
  m_LocalPosition: {x: 0, y: 0, z: -1}
  m_LocalScale: {x: 0.6, y: 0.6, z: 5}
  m_Children: []
  m_Father: {fileID: 1375643291}
  m_RootOrder: 0
  m_LocalEulerAnglesHint: {x: 0, y: 0, z: 0}
--- !u!212 &868061859
SpriteRenderer:
  m_ObjectHideFlags: 0
  m_PrefabParentObject: {fileID: 21213984, guid: 455a8082e44b74539a2ffe87d0226970,
    type: 2}
  m_PrefabInternal: {fileID: 1000856876}
  m_GameObject: {fileID: 868061857}
  m_Enabled: 1
  m_CastShadows: 0
  m_ReceiveShadows: 0
  m_MotionVectors: 1
  m_LightProbeUsage: 0
  m_ReflectionProbeUsage: 0
  m_Materials:
  - {fileID: 10754, guid: 0000000000000000f000000000000000, type: 0}
  m_StaticBatchInfo:
    firstSubMesh: 0
    subMeshCount: 0
  m_StaticBatchRoot: {fileID: 0}
  m_ProbeAnchor: {fileID: 0}
  m_LightProbeVolumeOverride: {fileID: 0}
  m_ScaleInLightmap: 1
  m_PreserveUVs: 0
  m_IgnoreNormalsForChartDetection: 0
  m_ImportantGI: 0
  m_SelectedEditorRenderState: 0
  m_MinimumChartSize: 4
  m_AutoUVMaxDistance: 0.5
  m_AutoUVMaxAngle: 89
  m_LightmapParameters: {fileID: 0}
  m_SortingLayerID: 0
  m_SortingLayer: 0
  m_SortingOrder: 10
  m_Sprite: {fileID: 21300002, guid: 426a52a1a2a2f4be187d6d7b3607e056, type: 3}
  m_Color: {r: 1, g: 1, b: 1, a: 1}
  m_FlipX: 0
  m_FlipY: 0
  m_DrawMode: 0
  m_Size: {x: 1, y: 1}
  m_AdaptiveModeThreshold: 0.5
  m_SpriteTileMode: 0
--- !u!1001 &907682461
Prefab:
  m_ObjectHideFlags: 0
  serializedVersion: 2
  m_Modification:
    m_TransformParent: {fileID: 577085388}
    m_Modifications:
    - target: {fileID: 495170, guid: 455a8082e44b74539a2ffe87d0226970, type: 2}
      propertyPath: m_LocalPosition.x
      value: 0
      objectReference: {fileID: 0}
    - target: {fileID: 495170, guid: 455a8082e44b74539a2ffe87d0226970, type: 2}
      propertyPath: m_LocalPosition.y
      value: 0
      objectReference: {fileID: 0}
    - target: {fileID: 495170, guid: 455a8082e44b74539a2ffe87d0226970, type: 2}
      propertyPath: m_LocalPosition.z
      value: 0
      objectReference: {fileID: 0}
    - target: {fileID: 495170, guid: 455a8082e44b74539a2ffe87d0226970, type: 2}
      propertyPath: m_LocalRotation.x
      value: 0
      objectReference: {fileID: 0}
    - target: {fileID: 495170, guid: 455a8082e44b74539a2ffe87d0226970, type: 2}
      propertyPath: m_LocalRotation.y
      value: 0
      objectReference: {fileID: 0}
    - target: {fileID: 495170, guid: 455a8082e44b74539a2ffe87d0226970, type: 2}
      propertyPath: m_LocalRotation.z
      value: 0
      objectReference: {fileID: 0}
    - target: {fileID: 495170, guid: 455a8082e44b74539a2ffe87d0226970, type: 2}
      propertyPath: m_LocalRotation.w
      value: 1
      objectReference: {fileID: 0}
    - target: {fileID: 495170, guid: 455a8082e44b74539a2ffe87d0226970, type: 2}
      propertyPath: m_RootOrder
      value: 1
      objectReference: {fileID: 0}
    - target: {fileID: 176812, guid: 455a8082e44b74539a2ffe87d0226970, type: 2}
      propertyPath: m_Name
      value: Menu Item With Sprite (1)
      objectReference: {fileID: 0}
    - target: {fileID: 21213984, guid: 455a8082e44b74539a2ffe87d0226970, type: 2}
      propertyPath: m_Sprite
      value: 
      objectReference: {fileID: 21300004, guid: 426a52a1a2a2f4be187d6d7b3607e056,
        type: 3}
    - target: {fileID: 462336, guid: 455a8082e44b74539a2ffe87d0226970, type: 2}
      propertyPath: m_LocalScale.x
      value: .600000024
      objectReference: {fileID: 0}
    - target: {fileID: 462336, guid: 455a8082e44b74539a2ffe87d0226970, type: 2}
      propertyPath: m_LocalScale.y
      value: .600000024
      objectReference: {fileID: 0}
    - target: {fileID: 11491122, guid: 455a8082e44b74539a2ffe87d0226970, type: 2}
      propertyPath: OnClick.m_PersistentCalls.m_Calls.Array.data[0].m_Target
      value: 
      objectReference: {fileID: 1490200568}
    - target: {fileID: 11491122, guid: 455a8082e44b74539a2ffe87d0226970, type: 2}
      propertyPath: OnClick.m_PersistentCalls.m_Calls.Array.data[0].m_MethodName
      value: Select
      objectReference: {fileID: 0}
    - target: {fileID: 11491122, guid: 455a8082e44b74539a2ffe87d0226970, type: 2}
      propertyPath: OnClick.m_PersistentCalls.m_Calls.Array.data[0].m_Mode
      value: 5
      objectReference: {fileID: 0}
    - target: {fileID: 11491122, guid: 455a8082e44b74539a2ffe87d0226970, type: 2}
      propertyPath: OnClick.m_PersistentCalls.m_Calls.Array.data[0].m_Arguments.m_ObjectArgument
      value: 
      objectReference: {fileID: 0}
    - target: {fileID: 11491122, guid: 455a8082e44b74539a2ffe87d0226970, type: 2}
      propertyPath: OnClick.m_PersistentCalls.m_Calls.Array.data[0].m_Arguments.m_ObjectArgumentAssemblyTypeName
      value: UnityEngine.Object, UnityEngine
      objectReference: {fileID: 0}
    - target: {fileID: 11491122, guid: 455a8082e44b74539a2ffe87d0226970, type: 2}
      propertyPath: OnClick.m_PersistentCalls.m_Calls.Array.data[0].m_Arguments.m_StringArgument
      value: Angel Ghost
      objectReference: {fileID: 0}
    m_RemovedComponents: []
  m_ParentPrefab: {fileID: 100100000, guid: 455a8082e44b74539a2ffe87d0226970, type: 2}
  m_RootGameObject: {fileID: 1192453382}
  m_IsPrefabParent: 0
--- !u!1001 &936269105
Prefab:
  m_ObjectHideFlags: 0
  serializedVersion: 2
  m_Modification:
    m_TransformParent: {fileID: 577085388}
    m_Modifications:
    - target: {fileID: 495170, guid: 455a8082e44b74539a2ffe87d0226970, type: 2}
      propertyPath: m_LocalPosition.x
      value: 0
      objectReference: {fileID: 0}
    - target: {fileID: 495170, guid: 455a8082e44b74539a2ffe87d0226970, type: 2}
      propertyPath: m_LocalPosition.y
      value: 0
      objectReference: {fileID: 0}
    - target: {fileID: 495170, guid: 455a8082e44b74539a2ffe87d0226970, type: 2}
      propertyPath: m_LocalPosition.z
      value: 0
      objectReference: {fileID: 0}
    - target: {fileID: 495170, guid: 455a8082e44b74539a2ffe87d0226970, type: 2}
      propertyPath: m_LocalRotation.x
      value: 0
      objectReference: {fileID: 0}
    - target: {fileID: 495170, guid: 455a8082e44b74539a2ffe87d0226970, type: 2}
      propertyPath: m_LocalRotation.y
      value: 0
      objectReference: {fileID: 0}
    - target: {fileID: 495170, guid: 455a8082e44b74539a2ffe87d0226970, type: 2}
      propertyPath: m_LocalRotation.z
      value: 0
      objectReference: {fileID: 0}
    - target: {fileID: 495170, guid: 455a8082e44b74539a2ffe87d0226970, type: 2}
      propertyPath: m_LocalRotation.w
      value: 1
      objectReference: {fileID: 0}
    - target: {fileID: 495170, guid: 455a8082e44b74539a2ffe87d0226970, type: 2}
      propertyPath: m_RootOrder
      value: 4
      objectReference: {fileID: 0}
    - target: {fileID: 176812, guid: 455a8082e44b74539a2ffe87d0226970, type: 2}
      propertyPath: m_Name
      value: Menu Item With Sprite (4)
      objectReference: {fileID: 0}
    - target: {fileID: 21213984, guid: 455a8082e44b74539a2ffe87d0226970, type: 2}
      propertyPath: m_Sprite
      value: 
      objectReference: {fileID: 21300032, guid: 426a52a1a2a2f4be187d6d7b3607e056,
        type: 3}
    - target: {fileID: 462336, guid: 455a8082e44b74539a2ffe87d0226970, type: 2}
      propertyPath: m_LocalScale.x
      value: .600000024
      objectReference: {fileID: 0}
    - target: {fileID: 462336, guid: 455a8082e44b74539a2ffe87d0226970, type: 2}
      propertyPath: m_LocalScale.y
      value: .600000024
      objectReference: {fileID: 0}
    - target: {fileID: 11491122, guid: 455a8082e44b74539a2ffe87d0226970, type: 2}
      propertyPath: OnClick.m_PersistentCalls.m_Calls.Array.data[0].m_Target
      value: 
      objectReference: {fileID: 1490200568}
    - target: {fileID: 11491122, guid: 455a8082e44b74539a2ffe87d0226970, type: 2}
      propertyPath: OnClick.m_PersistentCalls.m_Calls.Array.data[0].m_MethodName
      value: Select
      objectReference: {fileID: 0}
    - target: {fileID: 11491122, guid: 455a8082e44b74539a2ffe87d0226970, type: 2}
      propertyPath: OnClick.m_PersistentCalls.m_Calls.Array.data[0].m_Mode
      value: 5
      objectReference: {fileID: 0}
    - target: {fileID: 11491122, guid: 455a8082e44b74539a2ffe87d0226970, type: 2}
      propertyPath: OnClick.m_PersistentCalls.m_Calls.Array.data[0].m_Arguments.m_ObjectArgument
      value: 
      objectReference: {fileID: 0}
    - target: {fileID: 11491122, guid: 455a8082e44b74539a2ffe87d0226970, type: 2}
      propertyPath: OnClick.m_PersistentCalls.m_Calls.Array.data[0].m_Arguments.m_ObjectArgumentAssemblyTypeName
      value: UnityEngine.Object, UnityEngine
      objectReference: {fileID: 0}
    - target: {fileID: 11491122, guid: 455a8082e44b74539a2ffe87d0226970, type: 2}
      propertyPath: OnClick.m_PersistentCalls.m_Calls.Array.data[0].m_Arguments.m_StringArgument
      value: Ninja Ghost
      objectReference: {fileID: 0}
    m_RemovedComponents: []
  m_ParentPrefab: {fileID: 100100000, guid: 455a8082e44b74539a2ffe87d0226970, type: 2}
  m_RootGameObject: {fileID: 992687515}
  m_IsPrefabParent: 0
--- !u!1001 &937143431
Prefab:
  m_ObjectHideFlags: 0
  serializedVersion: 2
  m_Modification:
    m_TransformParent: {fileID: 577085388}
    m_Modifications:
    - target: {fileID: 495170, guid: 455a8082e44b74539a2ffe87d0226970, type: 2}
      propertyPath: m_LocalPosition.x
      value: 0
      objectReference: {fileID: 0}
    - target: {fileID: 495170, guid: 455a8082e44b74539a2ffe87d0226970, type: 2}
      propertyPath: m_LocalPosition.y
      value: 0
      objectReference: {fileID: 0}
    - target: {fileID: 495170, guid: 455a8082e44b74539a2ffe87d0226970, type: 2}
      propertyPath: m_LocalPosition.z
      value: 0
      objectReference: {fileID: 0}
    - target: {fileID: 495170, guid: 455a8082e44b74539a2ffe87d0226970, type: 2}
      propertyPath: m_LocalRotation.x
      value: 0
      objectReference: {fileID: 0}
    - target: {fileID: 495170, guid: 455a8082e44b74539a2ffe87d0226970, type: 2}
      propertyPath: m_LocalRotation.y
      value: 0
      objectReference: {fileID: 0}
    - target: {fileID: 495170, guid: 455a8082e44b74539a2ffe87d0226970, type: 2}
      propertyPath: m_LocalRotation.z
      value: 0
      objectReference: {fileID: 0}
    - target: {fileID: 495170, guid: 455a8082e44b74539a2ffe87d0226970, type: 2}
      propertyPath: m_LocalRotation.w
      value: 1
      objectReference: {fileID: 0}
    - target: {fileID: 495170, guid: 455a8082e44b74539a2ffe87d0226970, type: 2}
      propertyPath: m_RootOrder
      value: 2
      objectReference: {fileID: 0}
    - target: {fileID: 176812, guid: 455a8082e44b74539a2ffe87d0226970, type: 2}
      propertyPath: m_Name
      value: Menu Item With Sprite (2)
      objectReference: {fileID: 0}
    - target: {fileID: 21213984, guid: 455a8082e44b74539a2ffe87d0226970, type: 2}
      propertyPath: m_Sprite
      value: 
      objectReference: {fileID: 21300008, guid: 426a52a1a2a2f4be187d6d7b3607e056,
        type: 3}
    - target: {fileID: 462336, guid: 455a8082e44b74539a2ffe87d0226970, type: 2}
      propertyPath: m_LocalScale.x
      value: .600000024
      objectReference: {fileID: 0}
    - target: {fileID: 462336, guid: 455a8082e44b74539a2ffe87d0226970, type: 2}
      propertyPath: m_LocalScale.y
      value: .600000024
      objectReference: {fileID: 0}
    - target: {fileID: 11491122, guid: 455a8082e44b74539a2ffe87d0226970, type: 2}
      propertyPath: OnClick.m_PersistentCalls.m_Calls.Array.data[0].m_Target
      value: 
      objectReference: {fileID: 1490200568}
    - target: {fileID: 11491122, guid: 455a8082e44b74539a2ffe87d0226970, type: 2}
      propertyPath: OnClick.m_PersistentCalls.m_Calls.Array.data[0].m_MethodName
      value: Select
      objectReference: {fileID: 0}
    - target: {fileID: 11491122, guid: 455a8082e44b74539a2ffe87d0226970, type: 2}
      propertyPath: OnClick.m_PersistentCalls.m_Calls.Array.data[0].m_Mode
      value: 5
      objectReference: {fileID: 0}
    - target: {fileID: 11491122, guid: 455a8082e44b74539a2ffe87d0226970, type: 2}
      propertyPath: OnClick.m_PersistentCalls.m_Calls.Array.data[0].m_Arguments.m_ObjectArgument
      value: 
      objectReference: {fileID: 0}
    - target: {fileID: 11491122, guid: 455a8082e44b74539a2ffe87d0226970, type: 2}
      propertyPath: OnClick.m_PersistentCalls.m_Calls.Array.data[0].m_Arguments.m_ObjectArgumentAssemblyTypeName
      value: UnityEngine.Object, UnityEngine
      objectReference: {fileID: 0}
    - target: {fileID: 11491122, guid: 455a8082e44b74539a2ffe87d0226970, type: 2}
      propertyPath: OnClick.m_PersistentCalls.m_Calls.Array.data[0].m_Arguments.m_StringArgument
      value: Cyborg Ghost
      objectReference: {fileID: 0}
    m_RemovedComponents: []
  m_ParentPrefab: {fileID: 100100000, guid: 455a8082e44b74539a2ffe87d0226970, type: 2}
  m_RootGameObject: {fileID: 246099072}
  m_IsPrefabParent: 0
--- !u!1 &992687515
GameObject:
  m_ObjectHideFlags: 0
  m_PrefabParentObject: {fileID: 176812, guid: 455a8082e44b74539a2ffe87d0226970, type: 2}
  m_PrefabInternal: {fileID: 936269105}
  serializedVersion: 5
  m_Component:
  - component: {fileID: 2117004888}
  - component: {fileID: 992687518}
  - component: {fileID: 992687517}
  - component: {fileID: 992687516}
  - component: {fileID: 2117004889}
  m_Layer: 0
  m_Name: Menu Item With Sprite (4)
  m_TagString: MenuItem
  m_Icon: {fileID: 0}
  m_NavMeshLayer: 0
  m_StaticEditorFlags: 0
  m_IsActive: 1
--- !u!23 &992687516
MeshRenderer:
  m_ObjectHideFlags: 0
  m_PrefabParentObject: {fileID: 2329132, guid: 455a8082e44b74539a2ffe87d0226970,
    type: 2}
  m_PrefabInternal: {fileID: 936269105}
  m_GameObject: {fileID: 992687515}
  m_Enabled: 0
  m_CastShadows: 1
  m_ReceiveShadows: 1
  m_MotionVectors: 1
  m_LightProbeUsage: 1
  m_ReflectionProbeUsage: 1
  m_Materials:
  - {fileID: 2100000, guid: 310255932d18e4c339a532537a012e6f, type: 2}
  m_StaticBatchInfo:
    firstSubMesh: 0
    subMeshCount: 0
  m_StaticBatchRoot: {fileID: 0}
  m_ProbeAnchor: {fileID: 0}
  m_LightProbeVolumeOverride: {fileID: 0}
  m_ScaleInLightmap: 1
  m_PreserveUVs: 0
  m_IgnoreNormalsForChartDetection: 0
  m_ImportantGI: 0
  m_SelectedEditorRenderState: 3
  m_MinimumChartSize: 4
  m_AutoUVMaxDistance: 0.5
  m_AutoUVMaxAngle: 89
  m_LightmapParameters: {fileID: 0}
  m_SortingLayerID: 0
  m_SortingLayer: 0
  m_SortingOrder: 0
--- !u!65 &992687517
BoxCollider:
  m_ObjectHideFlags: 0
  m_PrefabParentObject: {fileID: 6582184, guid: 455a8082e44b74539a2ffe87d0226970,
    type: 2}
  m_PrefabInternal: {fileID: 936269105}
  m_GameObject: {fileID: 992687515}
  m_Material: {fileID: 0}
  m_IsTrigger: 0
  m_Enabled: 1
  serializedVersion: 2
  m_Size: {x: 1, y: 1, z: 1}
  m_Center: {x: 0, y: 0, z: 0}
--- !u!33 &992687518
MeshFilter:
  m_ObjectHideFlags: 0
  m_PrefabParentObject: {fileID: 3300204, guid: 455a8082e44b74539a2ffe87d0226970,
    type: 2}
  m_PrefabInternal: {fileID: 936269105}
  m_GameObject: {fileID: 992687515}
  m_Mesh: {fileID: 10202, guid: 0000000000000000e000000000000000, type: 0}
--- !u!1001 &1000856876
Prefab:
  m_ObjectHideFlags: 0
  serializedVersion: 2
  m_Modification:
    m_TransformParent: {fileID: 577085388}
    m_Modifications:
    - target: {fileID: 495170, guid: 455a8082e44b74539a2ffe87d0226970, type: 2}
      propertyPath: m_LocalPosition.x
      value: 0
      objectReference: {fileID: 0}
    - target: {fileID: 495170, guid: 455a8082e44b74539a2ffe87d0226970, type: 2}
      propertyPath: m_LocalPosition.y
      value: 0
      objectReference: {fileID: 0}
    - target: {fileID: 495170, guid: 455a8082e44b74539a2ffe87d0226970, type: 2}
      propertyPath: m_LocalPosition.z
      value: 0
      objectReference: {fileID: 0}
    - target: {fileID: 495170, guid: 455a8082e44b74539a2ffe87d0226970, type: 2}
      propertyPath: m_LocalRotation.x
      value: 0
      objectReference: {fileID: 0}
    - target: {fileID: 495170, guid: 455a8082e44b74539a2ffe87d0226970, type: 2}
      propertyPath: m_LocalRotation.y
      value: 0
      objectReference: {fileID: 0}
    - target: {fileID: 495170, guid: 455a8082e44b74539a2ffe87d0226970, type: 2}
      propertyPath: m_LocalRotation.z
      value: 0
      objectReference: {fileID: 0}
    - target: {fileID: 495170, guid: 455a8082e44b74539a2ffe87d0226970, type: 2}
      propertyPath: m_LocalRotation.w
      value: 1
      objectReference: {fileID: 0}
    - target: {fileID: 495170, guid: 455a8082e44b74539a2ffe87d0226970, type: 2}
      propertyPath: m_RootOrder
      value: 0
      objectReference: {fileID: 0}
    - target: {fileID: 462336, guid: 455a8082e44b74539a2ffe87d0226970, type: 2}
      propertyPath: m_LocalScale.x
      value: .600000024
      objectReference: {fileID: 0}
    - target: {fileID: 462336, guid: 455a8082e44b74539a2ffe87d0226970, type: 2}
      propertyPath: m_LocalScale.y
      value: .600000024
      objectReference: {fileID: 0}
    - target: {fileID: 11491122, guid: 455a8082e44b74539a2ffe87d0226970, type: 2}
      propertyPath: OnClick.m_PersistentCalls.m_Calls.Array.data[0].m_Target
      value: 
      objectReference: {fileID: 1490200568}
    - target: {fileID: 11491122, guid: 455a8082e44b74539a2ffe87d0226970, type: 2}
      propertyPath: OnClick.m_PersistentCalls.m_Calls.Array.data[0].m_MethodName
      value: Select
      objectReference: {fileID: 0}
    - target: {fileID: 11491122, guid: 455a8082e44b74539a2ffe87d0226970, type: 2}
      propertyPath: OnClick.m_PersistentCalls.m_Calls.Array.data[0].m_Mode
      value: 5
      objectReference: {fileID: 0}
    - target: {fileID: 11491122, guid: 455a8082e44b74539a2ffe87d0226970, type: 2}
      propertyPath: OnClick.m_PersistentCalls.m_Calls.Array.data[0].m_Arguments.m_ObjectArgument
      value: 
      objectReference: {fileID: 0}
    - target: {fileID: 11491122, guid: 455a8082e44b74539a2ffe87d0226970, type: 2}
      propertyPath: OnClick.m_PersistentCalls.m_Calls.Array.data[0].m_Arguments.m_ObjectArgumentAssemblyTypeName
      value: UnityEngine.Object, UnityEngine
      objectReference: {fileID: 0}
    - target: {fileID: 11491122, guid: 455a8082e44b74539a2ffe87d0226970, type: 2}
      propertyPath: OnClick.m_PersistentCalls.m_Calls.Array.data[0].m_Arguments.m_StringArgument
      value: Green Ghost
      objectReference: {fileID: 0}
    - target: {fileID: 176812, guid: 455a8082e44b74539a2ffe87d0226970, type: 2}
      propertyPath: m_Name
      value: Menu Item With Sprite
      objectReference: {fileID: 0}
    m_RemovedComponents: []
  m_ParentPrefab: {fileID: 100100000, guid: 455a8082e44b74539a2ffe87d0226970, type: 2}
  m_RootGameObject: {fileID: 1021075080}
  m_IsPrefabParent: 0
--- !u!1 &1021075080
GameObject:
  m_ObjectHideFlags: 0
  m_PrefabParentObject: {fileID: 176812, guid: 455a8082e44b74539a2ffe87d0226970, type: 2}
  m_PrefabInternal: {fileID: 1000856876}
  serializedVersion: 5
  m_Component:
  - component: {fileID: 1375643291}
  - component: {fileID: 1021075083}
  - component: {fileID: 1021075082}
  - component: {fileID: 1021075081}
  - component: {fileID: 658030695}
  m_Layer: 0
  m_Name: Menu Item With Sprite
  m_TagString: MenuItem
  m_Icon: {fileID: 0}
  m_NavMeshLayer: 0
  m_StaticEditorFlags: 0
  m_IsActive: 1
--- !u!23 &1021075081
MeshRenderer:
  m_ObjectHideFlags: 0
  m_PrefabParentObject: {fileID: 2329132, guid: 455a8082e44b74539a2ffe87d0226970,
    type: 2}
  m_PrefabInternal: {fileID: 1000856876}
  m_GameObject: {fileID: 1021075080}
  m_Enabled: 0
  m_CastShadows: 1
  m_ReceiveShadows: 1
  m_MotionVectors: 1
  m_LightProbeUsage: 1
  m_ReflectionProbeUsage: 1
  m_Materials:
  - {fileID: 2100000, guid: 310255932d18e4c339a532537a012e6f, type: 2}
  m_StaticBatchInfo:
    firstSubMesh: 0
    subMeshCount: 0
  m_StaticBatchRoot: {fileID: 0}
  m_ProbeAnchor: {fileID: 0}
  m_LightProbeVolumeOverride: {fileID: 0}
  m_ScaleInLightmap: 1
  m_PreserveUVs: 0
  m_IgnoreNormalsForChartDetection: 0
  m_ImportantGI: 0
  m_SelectedEditorRenderState: 3
  m_MinimumChartSize: 4
  m_AutoUVMaxDistance: 0.5
  m_AutoUVMaxAngle: 89
  m_LightmapParameters: {fileID: 0}
  m_SortingLayerID: 0
  m_SortingLayer: 0
  m_SortingOrder: 0
--- !u!65 &1021075082
BoxCollider:
  m_ObjectHideFlags: 0
  m_PrefabParentObject: {fileID: 6582184, guid: 455a8082e44b74539a2ffe87d0226970,
    type: 2}
  m_PrefabInternal: {fileID: 1000856876}
  m_GameObject: {fileID: 1021075080}
  m_Material: {fileID: 0}
  m_IsTrigger: 0
  m_Enabled: 1
  serializedVersion: 2
  m_Size: {x: 1, y: 1, z: 1}
  m_Center: {x: 0, y: 0, z: 0}
--- !u!33 &1021075083
MeshFilter:
  m_ObjectHideFlags: 0
  m_PrefabParentObject: {fileID: 3300204, guid: 455a8082e44b74539a2ffe87d0226970,
    type: 2}
  m_PrefabInternal: {fileID: 1000856876}
  m_GameObject: {fileID: 1021075080}
  m_Mesh: {fileID: 10202, guid: 0000000000000000e000000000000000, type: 0}
--- !u!1 &1114464979
GameObject:
  m_ObjectHideFlags: 0
  m_PrefabParentObject: {fileID: 0}
  m_PrefabInternal: {fileID: 0}
  serializedVersion: 5
  m_Component:
  - component: {fileID: 1114464983}
  - component: {fileID: 1114464982}
  - component: {fileID: 1114464981}
  m_Layer: 5
  m_Name: Canvas
  m_TagString: Untagged
  m_Icon: {fileID: 0}
  m_NavMeshLayer: 0
  m_StaticEditorFlags: 0
  m_IsActive: 1
--- !u!114 &1114464981
MonoBehaviour:
  m_ObjectHideFlags: 0
  m_PrefabParentObject: {fileID: 0}
  m_PrefabInternal: {fileID: 0}
  m_GameObject: {fileID: 1114464979}
  m_Enabled: 1
  m_EditorHideFlags: 0
  m_Script: {fileID: 1980459831, guid: f5f67c52d1564df4a8936ccd202a3bd8, type: 3}
  m_Name: 
  m_EditorClassIdentifier: 
  m_UiScaleMode: 0
  m_ReferencePixelsPerUnit: 100
  m_ScaleFactor: 1
  m_ReferenceResolution: {x: 1920, y: 600}
  m_ScreenMatchMode: 0
  m_MatchWidthOrHeight: 0.5
  m_PhysicalUnit: 3
  m_FallbackScreenDPI: 96
  m_DefaultSpriteDPI: 96
  m_DynamicPixelsPerUnit: 1
--- !u!223 &1114464982
Canvas:
  m_ObjectHideFlags: 0
  m_PrefabParentObject: {fileID: 0}
  m_PrefabInternal: {fileID: 0}
  m_GameObject: {fileID: 1114464979}
  m_Enabled: 1
  serializedVersion: 3
  m_RenderMode: 0
  m_Camera: {fileID: 0}
  m_PlaneDistance: 100
  m_PixelPerfect: 0
  m_ReceivesEvents: 1
  m_OverrideSorting: 0
  m_OverridePixelPerfect: 0
  m_SortingBucketNormalizedSize: 0
  m_AdditionalShaderChannelsFlag: 25
  m_SortingLayerID: 0
  m_SortingOrder: 0
  m_TargetDisplay: 0
--- !u!224 &1114464983
RectTransform:
  m_ObjectHideFlags: 0
  m_PrefabParentObject: {fileID: 0}
  m_PrefabInternal: {fileID: 0}
  m_GameObject: {fileID: 1114464979}
  m_LocalRotation: {x: 0, y: 0, z: 0, w: 1}
  m_LocalPosition: {x: 0, y: 0, z: 0}
  m_LocalScale: {x: 0, y: 0, z: 0}
  m_Children:
  - {fileID: 2024718309}
  - {fileID: 1544493816}
  - {fileID: 244511081}
  m_Father: {fileID: 0}
  m_RootOrder: 4
  m_LocalEulerAnglesHint: {x: 0, y: 0, z: 0}
  m_AnchorMin: {x: 0, y: 0}
  m_AnchorMax: {x: 0, y: 0}
  m_AnchoredPosition: {x: 0, y: 0}
  m_SizeDelta: {x: 0, y: 0}
  m_Pivot: {x: 0, y: 0}
--- !u!1 &1192453382
GameObject:
  m_ObjectHideFlags: 0
  m_PrefabParentObject: {fileID: 176812, guid: 455a8082e44b74539a2ffe87d0226970, type: 2}
  m_PrefabInternal: {fileID: 907682461}
  serializedVersion: 5
  m_Component:
  - component: {fileID: 1933090487}
  - component: {fileID: 1192453385}
  - component: {fileID: 1192453384}
  - component: {fileID: 1192453383}
  - component: {fileID: 1933090483}
  m_Layer: 0
  m_Name: Menu Item With Sprite (1)
  m_TagString: MenuItem
  m_Icon: {fileID: 0}
  m_NavMeshLayer: 0
  m_StaticEditorFlags: 0
  m_IsActive: 1
--- !u!23 &1192453383
MeshRenderer:
  m_ObjectHideFlags: 0
  m_PrefabParentObject: {fileID: 2329132, guid: 455a8082e44b74539a2ffe87d0226970,
    type: 2}
  m_PrefabInternal: {fileID: 907682461}
  m_GameObject: {fileID: 1192453382}
  m_Enabled: 0
  m_CastShadows: 1
  m_ReceiveShadows: 1
  m_MotionVectors: 1
  m_LightProbeUsage: 1
  m_ReflectionProbeUsage: 1
  m_Materials:
  - {fileID: 2100000, guid: 310255932d18e4c339a532537a012e6f, type: 2}
  m_StaticBatchInfo:
    firstSubMesh: 0
    subMeshCount: 0
  m_StaticBatchRoot: {fileID: 0}
  m_ProbeAnchor: {fileID: 0}
  m_LightProbeVolumeOverride: {fileID: 0}
  m_ScaleInLightmap: 1
  m_PreserveUVs: 0
  m_IgnoreNormalsForChartDetection: 0
  m_ImportantGI: 0
  m_SelectedEditorRenderState: 3
  m_MinimumChartSize: 4
  m_AutoUVMaxDistance: 0.5
  m_AutoUVMaxAngle: 89
  m_LightmapParameters: {fileID: 0}
  m_SortingLayerID: 0
  m_SortingLayer: 0
  m_SortingOrder: 0
--- !u!65 &1192453384
BoxCollider:
  m_ObjectHideFlags: 0
  m_PrefabParentObject: {fileID: 6582184, guid: 455a8082e44b74539a2ffe87d0226970,
    type: 2}
  m_PrefabInternal: {fileID: 907682461}
  m_GameObject: {fileID: 1192453382}
  m_Material: {fileID: 0}
  m_IsTrigger: 0
  m_Enabled: 1
  serializedVersion: 2
  m_Size: {x: 1, y: 1, z: 1}
  m_Center: {x: 0, y: 0, z: 0}
--- !u!33 &1192453385
MeshFilter:
  m_ObjectHideFlags: 0
  m_PrefabParentObject: {fileID: 3300204, guid: 455a8082e44b74539a2ffe87d0226970,
    type: 2}
  m_PrefabInternal: {fileID: 907682461}
  m_GameObject: {fileID: 1192453382}
  m_Mesh: {fileID: 10202, guid: 0000000000000000e000000000000000, type: 0}
--- !u!1 &1207617610
GameObject:
  m_ObjectHideFlags: 0
  m_PrefabParentObject: {fileID: 143642, guid: 455a8082e44b74539a2ffe87d0226970, type: 2}
  m_PrefabInternal: {fileID: 1275362057}
  serializedVersion: 5
  m_Component:
  - component: {fileID: 1207617611}
  - component: {fileID: 1207617612}
  m_Layer: 0
  m_Name: Sprite
  m_TagString: Untagged
  m_Icon: {fileID: 0}
  m_NavMeshLayer: 0
  m_StaticEditorFlags: 0
  m_IsActive: 1
--- !u!4 &1207617611
Transform:
  m_ObjectHideFlags: 0
  m_PrefabParentObject: {fileID: 462336, guid: 455a8082e44b74539a2ffe87d0226970, type: 2}
  m_PrefabInternal: {fileID: 1275362057}
  m_GameObject: {fileID: 1207617610}
  m_LocalRotation: {x: 0, y: 0, z: 0, w: 1}
  m_LocalPosition: {x: 0, y: 0, z: -1}
  m_LocalScale: {x: 0.6, y: 0.6, z: 5}
  m_Children: []
  m_Father: {fileID: 268861645}
  m_RootOrder: 0
  m_LocalEulerAnglesHint: {x: 0, y: 0, z: 0}
--- !u!212 &1207617612
SpriteRenderer:
  m_ObjectHideFlags: 0
  m_PrefabParentObject: {fileID: 21213984, guid: 455a8082e44b74539a2ffe87d0226970,
    type: 2}
  m_PrefabInternal: {fileID: 1275362057}
  m_GameObject: {fileID: 1207617610}
  m_Enabled: 1
  m_CastShadows: 0
  m_ReceiveShadows: 0
  m_MotionVectors: 1
  m_LightProbeUsage: 0
  m_ReflectionProbeUsage: 0
  m_Materials:
  - {fileID: 10754, guid: 0000000000000000f000000000000000, type: 0}
  m_StaticBatchInfo:
    firstSubMesh: 0
    subMeshCount: 0
  m_StaticBatchRoot: {fileID: 0}
  m_ProbeAnchor: {fileID: 0}
  m_LightProbeVolumeOverride: {fileID: 0}
  m_ScaleInLightmap: 1
  m_PreserveUVs: 0
  m_IgnoreNormalsForChartDetection: 0
  m_ImportantGI: 0
  m_SelectedEditorRenderState: 0
  m_MinimumChartSize: 4
  m_AutoUVMaxDistance: 0.5
  m_AutoUVMaxAngle: 89
  m_LightmapParameters: {fileID: 0}
  m_SortingLayerID: 0
  m_SortingLayer: 0
  m_SortingOrder: 10
  m_Sprite: {fileID: 21300034, guid: 426a52a1a2a2f4be187d6d7b3607e056, type: 3}
  m_Color: {r: 1, g: 1, b: 1, a: 1}
  m_FlipX: 0
  m_FlipY: 0
  m_DrawMode: 0
  m_Size: {x: 1, y: 1}
  m_AdaptiveModeThreshold: 0.5
  m_SpriteTileMode: 0
--- !u!1001 &1275362057
Prefab:
  m_ObjectHideFlags: 0
  serializedVersion: 2
  m_Modification:
    m_TransformParent: {fileID: 577085388}
    m_Modifications:
    - target: {fileID: 495170, guid: 455a8082e44b74539a2ffe87d0226970, type: 2}
      propertyPath: m_LocalPosition.x
      value: 0
      objectReference: {fileID: 0}
    - target: {fileID: 495170, guid: 455a8082e44b74539a2ffe87d0226970, type: 2}
      propertyPath: m_LocalPosition.y
      value: 0
      objectReference: {fileID: 0}
    - target: {fileID: 495170, guid: 455a8082e44b74539a2ffe87d0226970, type: 2}
      propertyPath: m_LocalPosition.z
      value: 0
      objectReference: {fileID: 0}
    - target: {fileID: 495170, guid: 455a8082e44b74539a2ffe87d0226970, type: 2}
      propertyPath: m_LocalRotation.x
      value: 0
      objectReference: {fileID: 0}
    - target: {fileID: 495170, guid: 455a8082e44b74539a2ffe87d0226970, type: 2}
      propertyPath: m_LocalRotation.y
      value: 0
      objectReference: {fileID: 0}
    - target: {fileID: 495170, guid: 455a8082e44b74539a2ffe87d0226970, type: 2}
      propertyPath: m_LocalRotation.z
      value: 0
      objectReference: {fileID: 0}
    - target: {fileID: 495170, guid: 455a8082e44b74539a2ffe87d0226970, type: 2}
      propertyPath: m_LocalRotation.w
      value: 1
      objectReference: {fileID: 0}
    - target: {fileID: 495170, guid: 455a8082e44b74539a2ffe87d0226970, type: 2}
      propertyPath: m_RootOrder
      value: 5
      objectReference: {fileID: 0}
    - target: {fileID: 176812, guid: 455a8082e44b74539a2ffe87d0226970, type: 2}
      propertyPath: m_Name
      value: Menu Item With Sprite (6)
      objectReference: {fileID: 0}
    - target: {fileID: 21213984, guid: 455a8082e44b74539a2ffe87d0226970, type: 2}
      propertyPath: m_Sprite
      value: 
      objectReference: {fileID: 21300034, guid: 426a52a1a2a2f4be187d6d7b3607e056,
        type: 3}
    - target: {fileID: 462336, guid: 455a8082e44b74539a2ffe87d0226970, type: 2}
      propertyPath: m_LocalScale.x
      value: .600000024
      objectReference: {fileID: 0}
    - target: {fileID: 462336, guid: 455a8082e44b74539a2ffe87d0226970, type: 2}
      propertyPath: m_LocalScale.y
      value: .600000024
      objectReference: {fileID: 0}
    - target: {fileID: 11491122, guid: 455a8082e44b74539a2ffe87d0226970, type: 2}
      propertyPath: OnClick.m_PersistentCalls.m_Calls.Array.data[0].m_Target
      value: 
      objectReference: {fileID: 1490200568}
    - target: {fileID: 11491122, guid: 455a8082e44b74539a2ffe87d0226970, type: 2}
      propertyPath: OnClick.m_PersistentCalls.m_Calls.Array.data[0].m_MethodName
      value: Select
      objectReference: {fileID: 0}
    - target: {fileID: 11491122, guid: 455a8082e44b74539a2ffe87d0226970, type: 2}
      propertyPath: OnClick.m_PersistentCalls.m_Calls.Array.data[0].m_Mode
      value: 5
      objectReference: {fileID: 0}
    - target: {fileID: 11491122, guid: 455a8082e44b74539a2ffe87d0226970, type: 2}
      propertyPath: OnClick.m_PersistentCalls.m_Calls.Array.data[0].m_Arguments.m_ObjectArgument
      value: 
      objectReference: {fileID: 0}
    - target: {fileID: 11491122, guid: 455a8082e44b74539a2ffe87d0226970, type: 2}
      propertyPath: OnClick.m_PersistentCalls.m_Calls.Array.data[0].m_Arguments.m_ObjectArgumentAssemblyTypeName
      value: UnityEngine.Object, UnityEngine
      objectReference: {fileID: 0}
    - target: {fileID: 11491122, guid: 455a8082e44b74539a2ffe87d0226970, type: 2}
      propertyPath: OnClick.m_PersistentCalls.m_Calls.Array.data[0].m_Arguments.m_StringArgument
      value: Pirate Ghost
      objectReference: {fileID: 0}
    m_RemovedComponents: []
  m_ParentPrefab: {fileID: 100100000, guid: 455a8082e44b74539a2ffe87d0226970, type: 2}
  m_RootGameObject: {fileID: 345837631}
  m_IsPrefabParent: 0
--- !u!1 &1312490280
GameObject:
  m_ObjectHideFlags: 0
  m_PrefabParentObject: {fileID: 122182, guid: d4a167950a10a4c72a4b29b39f8ccb2d, type: 2}
  m_PrefabInternal: {fileID: 1443554188}
  serializedVersion: 5
  m_Component:
  - component: {fileID: 1312490282}
  - component: {fileID: 1312490281}
  m_Layer: 0
  m_Name: Scene Switcher
  m_TagString: Untagged
  m_Icon: {fileID: 0}
  m_NavMeshLayer: 0
  m_StaticEditorFlags: 0
  m_IsActive: 1
--- !u!114 &1312490281
MonoBehaviour:
  m_ObjectHideFlags: 0
  m_PrefabParentObject: {fileID: 11479286, guid: d4a167950a10a4c72a4b29b39f8ccb2d,
    type: 2}
  m_PrefabInternal: {fileID: 1443554188}
  m_GameObject: {fileID: 1312490280}
  m_Enabled: 1
  m_EditorHideFlags: 0
  m_Script: {fileID: 11500000, guid: cbf0320d1e1e04e229dac78efbd4c7a7, type: 3}
  m_Name: 
  m_EditorClassIdentifier: 
--- !u!4 &1312490282
Transform:
  m_ObjectHideFlags: 0
  m_PrefabParentObject: {fileID: 434762, guid: d4a167950a10a4c72a4b29b39f8ccb2d, type: 2}
  m_PrefabInternal: {fileID: 1443554188}
  m_GameObject: {fileID: 1312490280}
  m_LocalRotation: {x: 0, y: 0, z: 0, w: 1}
  m_LocalPosition: {x: 0, y: 0, z: -0.00049999997}
  m_LocalScale: {x: 1, y: 1, z: 1}
  m_Children: []
  m_Father: {fileID: 0}
  m_RootOrder: 6
  m_LocalEulerAnglesHint: {x: 0, y: 0, z: 0}
--- !u!4 &1375643291
Transform:
  m_ObjectHideFlags: 0
  m_PrefabParentObject: {fileID: 495170, guid: 455a8082e44b74539a2ffe87d0226970, type: 2}
  m_PrefabInternal: {fileID: 1000856876}
  m_GameObject: {fileID: 1021075080}
  m_LocalRotation: {x: 0, y: 0, z: 0, w: 1}
  m_LocalPosition: {x: 0, y: 0, z: 0}
  m_LocalScale: {x: 1, y: 1.3, z: 0.001}
  m_Children:
  - {fileID: 868061858}
  m_Father: {fileID: 577085388}
  m_RootOrder: 0
  m_LocalEulerAnglesHint: {x: 0, y: 0, z: 0}
--- !u!1001 &1443554188
Prefab:
  m_ObjectHideFlags: 0
  serializedVersion: 2
  m_Modification:
    m_TransformParent: {fileID: 0}
    m_Modifications:
    - target: {fileID: 434762, guid: d4a167950a10a4c72a4b29b39f8ccb2d, type: 2}
      propertyPath: m_LocalPosition.x
      value: 0
      objectReference: {fileID: 0}
    - target: {fileID: 434762, guid: d4a167950a10a4c72a4b29b39f8ccb2d, type: 2}
      propertyPath: m_LocalPosition.y
      value: 0
      objectReference: {fileID: 0}
    - target: {fileID: 434762, guid: d4a167950a10a4c72a4b29b39f8ccb2d, type: 2}
      propertyPath: m_LocalPosition.z
      value: -.000499999966
      objectReference: {fileID: 0}
    - target: {fileID: 434762, guid: d4a167950a10a4c72a4b29b39f8ccb2d, type: 2}
      propertyPath: m_LocalRotation.x
      value: 0
      objectReference: {fileID: 0}
    - target: {fileID: 434762, guid: d4a167950a10a4c72a4b29b39f8ccb2d, type: 2}
      propertyPath: m_LocalRotation.y
      value: 0
      objectReference: {fileID: 0}
    - target: {fileID: 434762, guid: d4a167950a10a4c72a4b29b39f8ccb2d, type: 2}
      propertyPath: m_LocalRotation.z
      value: 0
      objectReference: {fileID: 0}
    - target: {fileID: 434762, guid: d4a167950a10a4c72a4b29b39f8ccb2d, type: 2}
      propertyPath: m_LocalRotation.w
      value: 1
      objectReference: {fileID: 0}
    - target: {fileID: 434762, guid: d4a167950a10a4c72a4b29b39f8ccb2d, type: 2}
      propertyPath: m_RootOrder
      value: 6
      objectReference: {fileID: 0}
    m_RemovedComponents: []
  m_ParentPrefab: {fileID: 100100000, guid: d4a167950a10a4c72a4b29b39f8ccb2d, type: 2}
  m_RootGameObject: {fileID: 1312490280}
  m_IsPrefabParent: 0
--- !u!1 &1447083672
GameObject:
  m_ObjectHideFlags: 0
  m_PrefabParentObject: {fileID: 137754, guid: b2d29c03302dc47b8ac2faf369b93484, type: 2}
  m_PrefabInternal: {fileID: 1544493815}
  serializedVersion: 5
  m_Component:
  - component: {fileID: 1544493816}
  - component: {fileID: 1447083674}
  - component: {fileID: 1447083673}
  m_Layer: 5
  m_Name: Info Text
  m_TagString: Untagged
  m_Icon: {fileID: 0}
  m_NavMeshLayer: 0
  m_StaticEditorFlags: 0
  m_IsActive: 1
--- !u!114 &1447083673
MonoBehaviour:
  m_ObjectHideFlags: 0
  m_PrefabParentObject: {fileID: 11403426, guid: b2d29c03302dc47b8ac2faf369b93484,
    type: 2}
  m_PrefabInternal: {fileID: 1544493815}
  m_GameObject: {fileID: 1447083672}
  m_Enabled: 1
  m_EditorHideFlags: 0
  m_Script: {fileID: 708705254, guid: f5f67c52d1564df4a8936ccd202a3bd8, type: 3}
  m_Name: 
  m_EditorClassIdentifier: 
  m_Material: {fileID: 0}
  m_Color: {r: 0.19607843, g: 0.19607843, b: 0.19607843, a: 1}
  m_RaycastTarget: 0
  m_OnCullStateChanged:
    m_PersistentCalls:
      m_Calls: []
    m_TypeName: UnityEngine.UI.MaskableGraphic+CullStateChangedEvent, UnityEngine.UI,
      Version=1.0.0.0, Culture=neutral, PublicKeyToken=null
  m_FontData:
    m_Font: {fileID: 10102, guid: 0000000000000000e000000000000000, type: 0}
    m_FontSize: 16
    m_FontStyle: 0
    m_BestFit: 0
    m_MinSize: 10
    m_MaxSize: 40
    m_Alignment: 0
    m_AlignByGeometry: 0
    m_RichText: 1
    m_HorizontalOverflow: 0
    m_VerticalOverflow: 0
    m_LineSpacing: 1
  m_Text: 'Character Selection Example


    Menu Rotation: 0

    Distance Between Menus: 1

    Swipes: Enabled

    Flicks: Disabled

    Lock To Closest: Enabled'
--- !u!222 &1447083674
CanvasRenderer:
  m_ObjectHideFlags: 0
  m_PrefabParentObject: {fileID: 22252190, guid: b2d29c03302dc47b8ac2faf369b93484,
    type: 2}
  m_PrefabInternal: {fileID: 1544493815}
  m_GameObject: {fileID: 1447083672}
--- !u!1 &1490200567
GameObject:
  m_ObjectHideFlags: 0
  m_PrefabParentObject: {fileID: 0}
  m_PrefabInternal: {fileID: 0}
  serializedVersion: 5
  m_Component:
  - component: {fileID: 1490200569}
  - component: {fileID: 1490200568}
  m_Layer: 0
  m_Name: Character Selector
  m_TagString: Untagged
  m_Icon: {fileID: 0}
  m_NavMeshLayer: 0
  m_StaticEditorFlags: 0
  m_IsActive: 1
--- !u!114 &1490200568
MonoBehaviour:
  m_ObjectHideFlags: 0
  m_PrefabParentObject: {fileID: 0}
  m_PrefabInternal: {fileID: 0}
  m_GameObject: {fileID: 1490200567}
  m_Enabled: 1
  m_EditorHideFlags: 0
  m_Script: {fileID: 11500000, guid: 15a5b380d7f494f98ad7fe129ceb3b1c, type: 3}
  m_Name: 
  m_EditorClassIdentifier: 
  text: {fileID: 2024718308}
--- !u!4 &1490200569
Transform:
  m_ObjectHideFlags: 0
  m_PrefabParentObject: {fileID: 0}
  m_PrefabInternal: {fileID: 0}
  m_GameObject: {fileID: 1490200567}
  m_LocalRotation: {x: 0, y: 0, z: 0, w: 1}
  m_LocalPosition: {x: 0, y: 0, z: -1}
  m_LocalScale: {x: 1, y: 1, z: 1}
  m_Children: []
  m_Father: {fileID: 0}
  m_RootOrder: 3
  m_LocalEulerAnglesHint: {x: 0, y: 0, z: 0}
--- !u!1001 &1544493815
Prefab:
  m_ObjectHideFlags: 0
  serializedVersion: 2
  m_Modification:
    m_TransformParent: {fileID: 1114464983}
    m_Modifications:
    - target: {fileID: 22447586, guid: b2d29c03302dc47b8ac2faf369b93484, type: 2}
      propertyPath: m_LocalPosition.x
      value: 0
      objectReference: {fileID: 0}
    - target: {fileID: 22447586, guid: b2d29c03302dc47b8ac2faf369b93484, type: 2}
      propertyPath: m_LocalPosition.y
      value: 0
      objectReference: {fileID: 0}
    - target: {fileID: 22447586, guid: b2d29c03302dc47b8ac2faf369b93484, type: 2}
      propertyPath: m_LocalPosition.z
      value: 0
      objectReference: {fileID: 0}
    - target: {fileID: 22447586, guid: b2d29c03302dc47b8ac2faf369b93484, type: 2}
      propertyPath: m_LocalRotation.x
      value: 0
      objectReference: {fileID: 0}
    - target: {fileID: 22447586, guid: b2d29c03302dc47b8ac2faf369b93484, type: 2}
      propertyPath: m_LocalRotation.y
      value: 0
      objectReference: {fileID: 0}
    - target: {fileID: 22447586, guid: b2d29c03302dc47b8ac2faf369b93484, type: 2}
      propertyPath: m_LocalRotation.z
      value: 0
      objectReference: {fileID: 0}
    - target: {fileID: 22447586, guid: b2d29c03302dc47b8ac2faf369b93484, type: 2}
      propertyPath: m_LocalRotation.w
      value: 1
      objectReference: {fileID: 0}
    - target: {fileID: 22447586, guid: b2d29c03302dc47b8ac2faf369b93484, type: 2}
      propertyPath: m_RootOrder
      value: 1
      objectReference: {fileID: 0}
    - target: {fileID: 22447586, guid: b2d29c03302dc47b8ac2faf369b93484, type: 2}
      propertyPath: m_AnchoredPosition.x
      value: 200
      objectReference: {fileID: 0}
    - target: {fileID: 22447586, guid: b2d29c03302dc47b8ac2faf369b93484, type: 2}
      propertyPath: m_AnchoredPosition.y
      value: -100
      objectReference: {fileID: 0}
    - target: {fileID: 22447586, guid: b2d29c03302dc47b8ac2faf369b93484, type: 2}
      propertyPath: m_SizeDelta.x
      value: 400
      objectReference: {fileID: 0}
    - target: {fileID: 22447586, guid: b2d29c03302dc47b8ac2faf369b93484, type: 2}
      propertyPath: m_SizeDelta.y
      value: 200
      objectReference: {fileID: 0}
    - target: {fileID: 22447586, guid: b2d29c03302dc47b8ac2faf369b93484, type: 2}
      propertyPath: m_AnchorMin.x
      value: 0
      objectReference: {fileID: 0}
    - target: {fileID: 22447586, guid: b2d29c03302dc47b8ac2faf369b93484, type: 2}
      propertyPath: m_AnchorMin.y
      value: 1
      objectReference: {fileID: 0}
    - target: {fileID: 22447586, guid: b2d29c03302dc47b8ac2faf369b93484, type: 2}
      propertyPath: m_AnchorMax.x
      value: 0
      objectReference: {fileID: 0}
    - target: {fileID: 22447586, guid: b2d29c03302dc47b8ac2faf369b93484, type: 2}
      propertyPath: m_AnchorMax.y
      value: 1
      objectReference: {fileID: 0}
    - target: {fileID: 22447586, guid: b2d29c03302dc47b8ac2faf369b93484, type: 2}
      propertyPath: m_Pivot.x
      value: .5
      objectReference: {fileID: 0}
    - target: {fileID: 22447586, guid: b2d29c03302dc47b8ac2faf369b93484, type: 2}
      propertyPath: m_Pivot.y
      value: .5
      objectReference: {fileID: 0}
    - target: {fileID: 11477482, guid: b2d29c03302dc47b8ac2faf369b93484, type: 2}
      propertyPath: m_Text
      value: 'Character Selection Example


        Menu Rotation: 0

        Distance Between Menus: 1

        Swipes: Enabled

        Flicks: false

        Lock To Closest: true'
      objectReference: {fileID: 0}
    - target: {fileID: 11403426, guid: b2d29c03302dc47b8ac2faf369b93484, type: 2}
      propertyPath: m_Text
      value: 'Character Selection Example


        Menu Rotation: 0

        Distance Between Menus: 1

        Swipes: Enabled

        Flicks: Disabled

        Lock To Closest: Enabled'
      objectReference: {fileID: 0}
    - target: {fileID: 11403426, guid: b2d29c03302dc47b8ac2faf369b93484, type: 2}
      propertyPath: m_RaycastTarget
      value: 0
      objectReference: {fileID: 0}
    m_RemovedComponents: []
  m_ParentPrefab: {fileID: 100100000, guid: b2d29c03302dc47b8ac2faf369b93484, type: 2}
  m_RootGameObject: {fileID: 1447083672}
  m_IsPrefabParent: 0
--- !u!224 &1544493816
RectTransform:
  m_ObjectHideFlags: 0
  m_PrefabParentObject: {fileID: 22421158, guid: b2d29c03302dc47b8ac2faf369b93484,
    type: 2}
  m_PrefabInternal: {fileID: 1544493815}
  m_GameObject: {fileID: 1447083672}
  m_LocalRotation: {x: 0, y: 0, z: 0, w: 1}
  m_LocalPosition: {x: 0, y: 0, z: 0}
  m_LocalScale: {x: 1, y: 1, z: 1}
  m_Children: []
  m_Father: {fileID: 1114464983}
  m_RootOrder: 1
  m_LocalEulerAnglesHint: {x: 0, y: 0, z: 0}
  m_AnchorMin: {x: 0, y: 1}
  m_AnchorMax: {x: 0, y: 1}
  m_AnchoredPosition: {x: 200, y: -100}
  m_SizeDelta: {x: 400, y: 200}
  m_Pivot: {x: 0.5, y: 0.5}
--- !u!1 &1756527110
GameObject:
  m_ObjectHideFlags: 0
  m_PrefabParentObject: {fileID: 0}
  m_PrefabInternal: {fileID: 0}
  serializedVersion: 5
  m_Component:
  - component: {fileID: 1756527114}
  - component: {fileID: 1756527113}
  - component: {fileID: 1756527112}
  - component: {fileID: 1756527111}
  m_Layer: 0
  m_Name: EventSystem
  m_TagString: Untagged
  m_Icon: {fileID: 0}
  m_NavMeshLayer: 0
  m_StaticEditorFlags: 0
  m_IsActive: 1
--- !u!114 &1756527111
MonoBehaviour:
  m_ObjectHideFlags: 0
  m_PrefabParentObject: {fileID: 0}
  m_PrefabInternal: {fileID: 0}
  m_GameObject: {fileID: 1756527110}
  m_Enabled: 1
  m_EditorHideFlags: 0
  m_Script: {fileID: 1997211142, guid: f5f67c52d1564df4a8936ccd202a3bd8, type: 3}
  m_Name: 
  m_EditorClassIdentifier: 
  m_ForceModuleActive: 0
--- !u!114 &1756527112
MonoBehaviour:
  m_ObjectHideFlags: 0
  m_PrefabParentObject: {fileID: 0}
  m_PrefabInternal: {fileID: 0}
  m_GameObject: {fileID: 1756527110}
  m_Enabled: 1
  m_EditorHideFlags: 0
  m_Script: {fileID: 1077351063, guid: f5f67c52d1564df4a8936ccd202a3bd8, type: 3}
  m_Name: 
  m_EditorClassIdentifier: 
  m_HorizontalAxis: Horizontal
  m_VerticalAxis: Vertical
  m_SubmitButton: Submit
  m_CancelButton: Cancel
  m_InputActionsPerSecond: 10
  m_RepeatDelay: 0.5
  m_ForceModuleActive: 0
--- !u!114 &1756527113
MonoBehaviour:
  m_ObjectHideFlags: 0
  m_PrefabParentObject: {fileID: 0}
  m_PrefabInternal: {fileID: 0}
  m_GameObject: {fileID: 1756527110}
  m_Enabled: 1
  m_EditorHideFlags: 0
  m_Script: {fileID: -619905303, guid: f5f67c52d1564df4a8936ccd202a3bd8, type: 3}
  m_Name: 
  m_EditorClassIdentifier: 
  m_FirstSelected: {fileID: 0}
  m_sendNavigationEvents: 1
  m_DragThreshold: 5
--- !u!4 &1756527114
Transform:
  m_ObjectHideFlags: 0
  m_PrefabParentObject: {fileID: 0}
  m_PrefabInternal: {fileID: 0}
  m_GameObject: {fileID: 1756527110}
  m_LocalRotation: {x: 0, y: 0, z: 0, w: 1}
  m_LocalPosition: {x: 0, y: 0, z: 0}
  m_LocalScale: {x: 1, y: 1, z: 1}
  m_Children: []
  m_Father: {fileID: 0}
  m_RootOrder: 5
  m_LocalEulerAnglesHint: {x: 0, y: 0, z: 0}
--- !u!4 &1796305224
Transform:
  m_ObjectHideFlags: 0
  m_PrefabParentObject: {fileID: 495170, guid: 455a8082e44b74539a2ffe87d0226970, type: 2}
  m_PrefabInternal: {fileID: 937143431}
  m_GameObject: {fileID: 246099072}
  m_LocalRotation: {x: 0, y: 0, z: 0, w: 1}
  m_LocalPosition: {x: 0, y: 0, z: 0}
  m_LocalScale: {x: 1, y: 1.3, z: 0.001}
  m_Children:
  - {fileID: 528616840}
  m_Father: {fileID: 577085388}
  m_RootOrder: 2
  m_LocalEulerAnglesHint: {x: 0, y: 0, z: 0}
--- !u!114 &1796305225
MonoBehaviour:
  m_ObjectHideFlags: 0
  m_PrefabParentObject: {fileID: 11491122, guid: 455a8082e44b74539a2ffe87d0226970,
    type: 2}
  m_PrefabInternal: {fileID: 937143431}
  m_GameObject: {fileID: 246099072}
  m_Enabled: 1
  m_EditorHideFlags: 0
  m_Script: {fileID: 11500000, guid: 3160ba9731a344d29af7fcc2db11ebb5, type: 3}
  m_Name: 
  m_EditorClassIdentifier: 
--- !u!1 &1799659596
GameObject:
  m_ObjectHideFlags: 0
  m_PrefabParentObject: {fileID: 143642, guid: 455a8082e44b74539a2ffe87d0226970, type: 2}
  m_PrefabInternal: {fileID: 907682461}
  serializedVersion: 5
  m_Component:
  - component: {fileID: 1799659597}
  - component: {fileID: 1799659598}
  m_Layer: 0
  m_Name: Sprite
  m_TagString: Untagged
  m_Icon: {fileID: 0}
  m_NavMeshLayer: 0
  m_StaticEditorFlags: 0
  m_IsActive: 1
--- !u!4 &1799659597
Transform:
  m_ObjectHideFlags: 0
  m_PrefabParentObject: {fileID: 462336, guid: 455a8082e44b74539a2ffe87d0226970, type: 2}
  m_PrefabInternal: {fileID: 907682461}
  m_GameObject: {fileID: 1799659596}
  m_LocalRotation: {x: 0, y: 0, z: 0, w: 1}
  m_LocalPosition: {x: 0, y: 0, z: -1}
  m_LocalScale: {x: 0.6, y: 0.6, z: 5}
  m_Children: []
  m_Father: {fileID: 1933090487}
  m_RootOrder: 0
  m_LocalEulerAnglesHint: {x: 0, y: 0, z: 0}
--- !u!212 &1799659598
SpriteRenderer:
  m_ObjectHideFlags: 0
  m_PrefabParentObject: {fileID: 21213984, guid: 455a8082e44b74539a2ffe87d0226970,
    type: 2}
  m_PrefabInternal: {fileID: 907682461}
  m_GameObject: {fileID: 1799659596}
  m_Enabled: 1
  m_CastShadows: 0
  m_ReceiveShadows: 0
  m_MotionVectors: 1
  m_LightProbeUsage: 0
  m_ReflectionProbeUsage: 0
  m_Materials:
  - {fileID: 10754, guid: 0000000000000000f000000000000000, type: 0}
  m_StaticBatchInfo:
    firstSubMesh: 0
    subMeshCount: 0
  m_StaticBatchRoot: {fileID: 0}
  m_ProbeAnchor: {fileID: 0}
  m_LightProbeVolumeOverride: {fileID: 0}
  m_ScaleInLightmap: 1
  m_PreserveUVs: 0
  m_IgnoreNormalsForChartDetection: 0
  m_ImportantGI: 0
  m_SelectedEditorRenderState: 0
  m_MinimumChartSize: 4
  m_AutoUVMaxDistance: 0.5
  m_AutoUVMaxAngle: 89
  m_LightmapParameters: {fileID: 0}
  m_SortingLayerID: 0
  m_SortingLayer: 0
  m_SortingOrder: 10
  m_Sprite: {fileID: 21300004, guid: 426a52a1a2a2f4be187d6d7b3607e056, type: 3}
  m_Color: {r: 1, g: 1, b: 1, a: 1}
  m_FlipX: 0
  m_FlipY: 0
  m_DrawMode: 0
  m_Size: {x: 1, y: 1}
  m_AdaptiveModeThreshold: 0.5
  m_SpriteTileMode: 0
--- !u!1 &1925961230
GameObject:
  m_ObjectHideFlags: 0
  m_PrefabParentObject: {fileID: 143642, guid: 455a8082e44b74539a2ffe87d0226970, type: 2}
  m_PrefabInternal: {fileID: 2065659562}
  serializedVersion: 5
  m_Component:
  - component: {fileID: 1925961231}
  - component: {fileID: 1925961232}
  m_Layer: 0
  m_Name: Sprite
  m_TagString: Untagged
  m_Icon: {fileID: 0}
  m_NavMeshLayer: 0
  m_StaticEditorFlags: 0
  m_IsActive: 1
--- !u!4 &1925961231
Transform:
  m_ObjectHideFlags: 0
  m_PrefabParentObject: {fileID: 462336, guid: 455a8082e44b74539a2ffe87d0226970, type: 2}
  m_PrefabInternal: {fileID: 2065659562}
  m_GameObject: {fileID: 1925961230}
  m_LocalRotation: {x: 0, y: 0, z: 0, w: 1}
  m_LocalPosition: {x: 0, y: 0, z: -1}
  m_LocalScale: {x: 0.6, y: 0.6, z: 5}
  m_Children: []
  m_Father: {fileID: 432486713}
  m_RootOrder: 0
  m_LocalEulerAnglesHint: {x: 0, y: 0, z: 0}
--- !u!212 &1925961232
SpriteRenderer:
  m_ObjectHideFlags: 0
  m_PrefabParentObject: {fileID: 21213984, guid: 455a8082e44b74539a2ffe87d0226970,
    type: 2}
  m_PrefabInternal: {fileID: 2065659562}
  m_GameObject: {fileID: 1925961230}
  m_Enabled: 1
  m_CastShadows: 0
  m_ReceiveShadows: 0
  m_MotionVectors: 1
  m_LightProbeUsage: 0
  m_ReflectionProbeUsage: 0
  m_Materials:
  - {fileID: 10754, guid: 0000000000000000f000000000000000, type: 0}
  m_StaticBatchInfo:
    firstSubMesh: 0
    subMeshCount: 0
  m_StaticBatchRoot: {fileID: 0}
  m_ProbeAnchor: {fileID: 0}
  m_LightProbeVolumeOverride: {fileID: 0}
  m_ScaleInLightmap: 1
  m_PreserveUVs: 0
  m_IgnoreNormalsForChartDetection: 0
  m_ImportantGI: 0
  m_SelectedEditorRenderState: 0
  m_MinimumChartSize: 4
  m_AutoUVMaxDistance: 0.5
  m_AutoUVMaxAngle: 89
  m_LightmapParameters: {fileID: 0}
  m_SortingLayerID: 0
  m_SortingLayer: 0
  m_SortingOrder: 10
  m_Sprite: {fileID: 21300020, guid: 426a52a1a2a2f4be187d6d7b3607e056, type: 3}
  m_Color: {r: 1, g: 1, b: 1, a: 1}
  m_FlipX: 0
  m_FlipY: 0
  m_DrawMode: 0
  m_Size: {x: 1, y: 1}
  m_AdaptiveModeThreshold: 0.5
  m_SpriteTileMode: 0
--- !u!114 &1933090483
MonoBehaviour:
  m_ObjectHideFlags: 0
  m_PrefabParentObject: {fileID: 11491122, guid: 455a8082e44b74539a2ffe87d0226970,
    type: 2}
  m_PrefabInternal: {fileID: 907682461}
  m_GameObject: {fileID: 1192453382}
  m_Enabled: 1
  m_EditorHideFlags: 0
  m_Script: {fileID: 11500000, guid: 3160ba9731a344d29af7fcc2db11ebb5, type: 3}
  m_Name: 
  m_EditorClassIdentifier: 
--- !u!4 &1933090487
Transform:
  m_ObjectHideFlags: 0
  m_PrefabParentObject: {fileID: 495170, guid: 455a8082e44b74539a2ffe87d0226970, type: 2}
  m_PrefabInternal: {fileID: 907682461}
  m_GameObject: {fileID: 1192453382}
  m_LocalRotation: {x: 0, y: 0, z: 0, w: 1}
  m_LocalPosition: {x: 0, y: 0, z: 0}
  m_LocalScale: {x: 1, y: 1.3, z: 0.001}
  m_Children:
  - {fileID: 1799659597}
  m_Father: {fileID: 577085388}
  m_RootOrder: 1
  m_LocalEulerAnglesHint: {x: 0, y: 0, z: 0}
--- !u!1 &2024718307
GameObject:
  m_ObjectHideFlags: 0
  m_PrefabParentObject: {fileID: 0}
  m_PrefabInternal: {fileID: 0}
  serializedVersion: 5
  m_Component:
  - component: {fileID: 2024718309}
  - component: {fileID: 2024718310}
  - component: {fileID: 2024718308}
  m_Layer: 5
  m_Name: Text
  m_TagString: Untagged
  m_Icon: {fileID: 0}
  m_NavMeshLayer: 0
  m_StaticEditorFlags: 0
  m_IsActive: 1
--- !u!114 &2024718308
MonoBehaviour:
  m_ObjectHideFlags: 0
  m_PrefabParentObject: {fileID: 0}
  m_PrefabInternal: {fileID: 0}
  m_GameObject: {fileID: 2024718307}
  m_Enabled: 1
  m_EditorHideFlags: 0
  m_Script: {fileID: 708705254, guid: f5f67c52d1564df4a8936ccd202a3bd8, type: 3}
  m_Name: 
  m_EditorClassIdentifier: 
  m_Material: {fileID: 0}
  m_Color: {r: 0.19607843, g: 0.19607843, b: 0.19607843, a: 1}
  m_RaycastTarget: 0
  m_OnCullStateChanged:
    m_PersistentCalls:
      m_Calls: []
    m_TypeName: UnityEngine.UI.MaskableGraphic+CullStateChangedEvent, UnityEngine.UI,
      Version=1.0.0.0, Culture=neutral, PublicKeyToken=null
  m_FontData:
    m_Font: {fileID: 10102, guid: 0000000000000000e000000000000000, type: 0}
    m_FontSize: 20
    m_FontStyle: 0
    m_BestFit: 0
    m_MinSize: 10
    m_MaxSize: 40
    m_Alignment: 4
    m_AlignByGeometry: 0
    m_RichText: 1
    m_HorizontalOverflow: 0
    m_VerticalOverflow: 0
    m_LineSpacing: 1
  m_Text: '

'
--- !u!224 &2024718309
RectTransform:
  m_ObjectHideFlags: 0
  m_PrefabParentObject: {fileID: 0}
  m_PrefabInternal: {fileID: 0}
  m_GameObject: {fileID: 2024718307}
  m_LocalRotation: {x: 0, y: 0, z: 0, w: 1}
  m_LocalPosition: {x: 0, y: 0, z: 0}
  m_LocalScale: {x: 1, y: 1, z: 1}
  m_Children: []
  m_Father: {fileID: 1114464983}
  m_RootOrder: 0
  m_LocalEulerAnglesHint: {x: 0, y: 0, z: 0}
  m_AnchorMin: {x: 0.5, y: 1}
  m_AnchorMax: {x: 0.5, y: 1}
  m_AnchoredPosition: {x: 0, y: -39}
  m_SizeDelta: {x: 320, y: 100}
  m_Pivot: {x: 0.5, y: 0.5}
--- !u!222 &2024718310
CanvasRenderer:
  m_ObjectHideFlags: 0
  m_PrefabParentObject: {fileID: 0}
  m_PrefabInternal: {fileID: 0}
  m_GameObject: {fileID: 2024718307}
--- !u!1001 &2065659562
Prefab:
  m_ObjectHideFlags: 0
  serializedVersion: 2
  m_Modification:
    m_TransformParent: {fileID: 577085388}
    m_Modifications:
    - target: {fileID: 495170, guid: 455a8082e44b74539a2ffe87d0226970, type: 2}
      propertyPath: m_LocalPosition.x
      value: 0
      objectReference: {fileID: 0}
    - target: {fileID: 495170, guid: 455a8082e44b74539a2ffe87d0226970, type: 2}
      propertyPath: m_LocalPosition.y
      value: 0
      objectReference: {fileID: 0}
    - target: {fileID: 495170, guid: 455a8082e44b74539a2ffe87d0226970, type: 2}
      propertyPath: m_LocalPosition.z
      value: 0
      objectReference: {fileID: 0}
    - target: {fileID: 495170, guid: 455a8082e44b74539a2ffe87d0226970, type: 2}
      propertyPath: m_LocalRotation.x
      value: 0
      objectReference: {fileID: 0}
    - target: {fileID: 495170, guid: 455a8082e44b74539a2ffe87d0226970, type: 2}
      propertyPath: m_LocalRotation.y
      value: 0
      objectReference: {fileID: 0}
    - target: {fileID: 495170, guid: 455a8082e44b74539a2ffe87d0226970, type: 2}
      propertyPath: m_LocalRotation.z
      value: 0
      objectReference: {fileID: 0}
    - target: {fileID: 495170, guid: 455a8082e44b74539a2ffe87d0226970, type: 2}
      propertyPath: m_LocalRotation.w
      value: 1
      objectReference: {fileID: 0}
    - target: {fileID: 495170, guid: 455a8082e44b74539a2ffe87d0226970, type: 2}
      propertyPath: m_RootOrder
      value: 3
      objectReference: {fileID: 0}
    - target: {fileID: 176812, guid: 455a8082e44b74539a2ffe87d0226970, type: 2}
      propertyPath: m_Name
      value: Menu Item With Sprite (3)
      objectReference: {fileID: 0}
    - target: {fileID: 21213984, guid: 455a8082e44b74539a2ffe87d0226970, type: 2}
      propertyPath: m_Sprite
      value: 
      objectReference: {fileID: 21300020, guid: 426a52a1a2a2f4be187d6d7b3607e056,
        type: 3}
    - target: {fileID: 462336, guid: 455a8082e44b74539a2ffe87d0226970, type: 2}
      propertyPath: m_LocalScale.x
      value: .600000024
      objectReference: {fileID: 0}
    - target: {fileID: 462336, guid: 455a8082e44b74539a2ffe87d0226970, type: 2}
      propertyPath: m_LocalScale.y
      value: .600000024
      objectReference: {fileID: 0}
    - target: {fileID: 11491122, guid: 455a8082e44b74539a2ffe87d0226970, type: 2}
      propertyPath: OnClick.m_PersistentCalls.m_Calls.Array.data[0].m_Target
      value: 
      objectReference: {fileID: 1490200568}
    - target: {fileID: 11491122, guid: 455a8082e44b74539a2ffe87d0226970, type: 2}
      propertyPath: OnClick.m_PersistentCalls.m_Calls.Array.data[0].m_MethodName
      value: Select
      objectReference: {fileID: 0}
    - target: {fileID: 11491122, guid: 455a8082e44b74539a2ffe87d0226970, type: 2}
      propertyPath: OnClick.m_PersistentCalls.m_Calls.Array.data[0].m_Mode
      value: 5
      objectReference: {fileID: 0}
    - target: {fileID: 11491122, guid: 455a8082e44b74539a2ffe87d0226970, type: 2}
      propertyPath: OnClick.m_PersistentCalls.m_Calls.Array.data[0].m_Arguments.m_ObjectArgument
      value: 
      objectReference: {fileID: 0}
    - target: {fileID: 11491122, guid: 455a8082e44b74539a2ffe87d0226970, type: 2}
      propertyPath: OnClick.m_PersistentCalls.m_Calls.Array.data[0].m_Arguments.m_ObjectArgumentAssemblyTypeName
      value: UnityEngine.Object, UnityEngine
      objectReference: {fileID: 0}
    - target: {fileID: 11491122, guid: 455a8082e44b74539a2ffe87d0226970, type: 2}
      propertyPath: OnClick.m_PersistentCalls.m_Calls.Array.data[0].m_Arguments.m_StringArgument
      value: Bow Tie Ghost
      objectReference: {fileID: 0}
    m_RemovedComponents: []
  m_ParentPrefab: {fileID: 100100000, guid: 455a8082e44b74539a2ffe87d0226970, type: 2}
  m_RootGameObject: {fileID: 631220931}
  m_IsPrefabParent: 0
--- !u!4 &2117004888
Transform:
  m_ObjectHideFlags: 0
  m_PrefabParentObject: {fileID: 495170, guid: 455a8082e44b74539a2ffe87d0226970, type: 2}
  m_PrefabInternal: {fileID: 936269105}
  m_GameObject: {fileID: 992687515}
  m_LocalRotation: {x: 0, y: 0, z: 0, w: 1}
  m_LocalPosition: {x: 0, y: 0, z: 0}
  m_LocalScale: {x: 1, y: 1.3, z: 0.001}
  m_Children:
  - {fileID: 765412246}
  m_Father: {fileID: 577085388}
  m_RootOrder: 4
  m_LocalEulerAnglesHint: {x: 0, y: 0, z: 0}
--- !u!114 &2117004889
MonoBehaviour:
  m_ObjectHideFlags: 0
  m_PrefabParentObject: {fileID: 11491122, guid: 455a8082e44b74539a2ffe87d0226970,
    type: 2}
  m_PrefabInternal: {fileID: 936269105}
  m_GameObject: {fileID: 992687515}
  m_Enabled: 1
  m_EditorHideFlags: 0
  m_Script: {fileID: 11500000, guid: 3160ba9731a344d29af7fcc2db11ebb5, type: 3}
  m_Name: 
  m_EditorClassIdentifier: 
